Time,Force
0.0,-4236.513297310424
2e-06,-4133.808344248819
4e-06,-4029.9384857558885
6e-06,-3924.9266291889153
8e-06,-3818.796326177961
1e-05,-3711.571708529284
1.2e-05,-3603.2774257990336
1.4e-05,-3493.938584606807
1.6e-05,-3383.5806897565026
1.8e-05,-3272.2295872292343
2e-05,-3159.91140910985
2.2e-05,-3046.652520504668
2.4e-05,-2932.4794685032193
2.6e-05,-2817.418933231099
2.8e-05,-2701.4976810344215
3e-05,-2584.74251982897
3.2e-05,-2467.1802566390575
3.4e-05,-2348.83765734257
3.6e-05,-2229.741408629832
3.8e-05,-2109.918082174956
4e-05,-1989.3941010094775
4.2e-05,-1868.1957080794464
4.4e-05,-1746.348936958894
4.6e-05,-1623.879584684826
4.8e-05,-1500.813186671741
5e-05,-1377.1749936572428
5.2e-05,-1252.9899506248378
5.4e-05,-1128.2826776455795
5.6e-05,-1003.077452577014
5.8e-05,-877.3981955559042
6e-05,-751.268455220523
6.2e-05,-624.7113965988246
6.4e-05,-497.749790600425
6.6e-05,-370.40600505280145
6.8e-05,-242.70199722521693
7e-05,-114.6593077873245
7.2e-05,13.70094384698443
7.4e-05,142.35806283637345
7.6e-05,271.2917809320597
7.8e-05,400.48225724066583
8e-05,529.9100777671673
8.2e-05,659.5562537733518
8.4e-05,789.4022189860397
8.6e-05,919.4298256888738
8.8e-05,1049.6213397318709
9e-05,1179.9594344941095
9.2e-05,1310.4271838368898
9.4e-05,1441.0080540872991
9.6e-05,1571.68589509521
9.8e-05,1702.444930410121
0.0001,1833.2697466276636
0.000102,1964.145281958821
0.000104,2095.0568140776663
0.000106,2225.98994730564
0.000108,2356.9305991919077
0.00011,2487.8649865501347
0.000112,2618.779611012067
0.000114,2749.6612441575985
0.000116,2880.4969122796297
0.000118,3011.273880840001
0.00012,3141.9796386701732
0.000122,3272.6018819672468
0.000124,3403.128498132438
0.000126,3533.547549495403
0.000128,3663.8472569640157
0.00013,3794.0159836354974
0.000132,3924.042218401378
0.000134,4053.914559575771
0.000136,4183.621698574059
0.000138,4313.152403667378
0.00014,4442.495503837297
0.000142,4571.6398727548485
0.000144,4700.574412908349
0.000146,4829.288039905517
0.000148,4957.7696669767665
0.00015,5086.008189708472
0.000152,5213.992471037085
0.000154,5341.711326537248
0.000156,5469.153510039216
0.000158,5596.307699612975
0.00016,5723.162483958063
0.000162,5849.706349239225
0.000164,5975.927666408476
0.000166,6101.814679053738
0.000168,6227.355491813087
0.00017,6352.53805939158
0.000172,6477.350176214959
0.000174,6601.779466751206
0.000176,6725.813376527326
0.000178,6849.439163864808
0.00018,6972.643892353435
0.000182,7095.414424079373
0.000184,7217.737413620129
0.000186,7339.599302816047
0.000188,7460.986316325466
0.00019,7581.884457968804
0.000192,7702.279507865478
0.000194,7822.157020366873
0.000196,7941.502322788512
0.000198,8060.300514945135
0.0002,8178.536469493413
0.000202,8296.194833088486
0.000204,8413.260028362147
0.000206,8529.716256732318
0.000208,8645.547502054917
0.00021,8760.737535130469
0.000212,8875.269919078506
0.000214,8989.128015592749
0.000216,9102.294992089535
0.000218,9214.753829760451
0.00022,9326.48733253809
0.000222,9437.47813698105
0.000224,9547.708723081025
0.000226,9657.161425991084
0.000228,9765.818448670265
0.00023,9873.661875435439
0.000232,9980.673686407346
0.000234,10086.835772833774
0.000236,10192.129953269268
0.000238,10296.537990587685
0.00024,10400.041609801216
0.000242,10502.622516657553
0.000244,10604.262416985242
0.000246,10704.943036756338
0.000248,10804.646142834761
0.00025,10903.353564378413
0.000252,11001.047214862785
0.000254,11097.709114693658
0.000256,11193.321414376014
0.000258,11287.86641820592
0.00026,11381.32660845128
0.000262,11473.684669986402
0.000264,11564.923515343777
0.000266,11655.026310144822
0.000268,11743.976498868842
0.00027,11831.75783091698
0.000272,11918.354386924533
0.000274,12003.750605271625
0.000276,12087.931308738243
0.000278,12170.881731245618
0.00028,12252.587544621629
0.000282,12333.034885323876
0.000284,12412.210381049932
0.000286,12490.10117716074
0.000288,12566.694962839856
0.00029,12641.979996908552
0.000292,12715.94513321474
0.000294,12788.579845512146
0.000296,12859.874251745554
0.000298,12929.819137657723
0.0003,12998.405979634292
0.000302,13065.626966704147
0.000304,13131.475021614653
0.000306,13195.943820903436
0.000308,13259.027813891384
0.00031,13320.72224052469
0.000312,13381.023147997594
0.000314,13439.927406091374
0.000316,13497.432721169522
0.000318,13553.537648773612
0.00032,13608.241604769324
0.000322,13661.544874997275
0.000324,13713.448623388871
0.000326,13763.954898513184
0.000328,13813.066638527187
0.00033,13860.787674508176
0.000332,13907.122732154136
0.000334,13952.077431844944
0.000336,13995.658287064787
0.000338,14037.872701193668
0.00034,14078.728962683432
0.000342,14118.236238641297
0.000344,14156.404566851068
0.000346,14193.244846269095
0.000348,14228.768826038542
0.00035,14262.9890930711
0.000352,14295.919058250498
0.000354,14327.572941316148
0.000356,14357.965754488634
0.000358,14387.113284900877
0.00036,14415.032075900222
0.000362,14441.739407286888
0.000364,14467.253274553736
0.000366,14491.592367191019
0.000368,14514.776046117779
0.00037,14536.82432029924
0.000372,14557.757822606873
0.000374,14577.59778497502
0.000376,14596.366012905302
0.000378,14614.084859367456
0.00038,14630.777198142956
0.000382,14646.466396655944
0.000384,14661.176288334344
0.000386,14674.93114454285
0.000388,14687.755646128633
0.00039,14699.674854619985
0.000392,14710.71418311793
0.000394,14720.899366920714
0.000396,14730.25643392127
0.000398,14738.811674818056
0.0004,14746.591613180019
0.000402,14753.622975406748
0.000404,14759.932660625269
0.000406,14765.547710564832
0.000408,14770.495279451188
0.00041,14774.80260396137
0.000412,14778.4969732795
0.000414,14781.605699293372
0.000416,14784.156086970683
0.000418,14786.175404952764
0.00042,14787.690856402656
0.000422,14788.729550143371
0.000424,14789.318472121126
0.000426,14789.48445722743
0.000428,14789.2541615128
0.00043,14788.654034824103
0.000432,14787.71029389653
0.000434,14786.448895930225
0.000436,14784.895512680887
0.000438,14783.075505092793
0.00044,14781.013898501973
0.000442,14778.735358436745
0.000444,14776.264167042158
0.000446,14773.62420015451
0.000448,14770.838905051394
0.00045,14767.931278902231
0.000452,14764.92384794335
0.000454,14761.83864740079
0.000456,14758.697202182848
0.000458,14755.52050836305
0.00046,14752.329015472826
0.000462,14749.142609621598
0.000464,14745.98059746037
0.000466,14742.861691003218
0.000468,14739.803993319447
0.00047,14736.824985107427
0.000472,14733.941512159514
0.000474,14731.169773725856
0.000476,14728.525311783316
0.000478,14726.023001214357
0.00048,14723.67704089964
0.000482,14721.500945726993
0.000484,14719.507539518896
0.000486,14717.708948879992
0.000488,14716.116597966122
0.00049,14714.7412041762
0.000492,14713.592774768342
0.000494,14712.680604401723
0.000496,14712.013273605544
0.000498,14711.598648176336
0.0005,14711.443879504424
0.000502,14711.55540582976
0.000504,14711.93895442644
0.000506,14712.599544714189
0.000508,14713.541492293623
0.00051,14714.76841390073
0.000512,14716.283233274102
0.000514,14718.088187926816
0.000516,14720.1848368129
0.000518,14722.57406887653
0.00052,14725.25611247044
0.000522,14728.230545628448
0.000524,14731.496307175757
0.000526,14735.051708659645
0.000528,14738.894447082419
0.00053,14743.021618418094
0.000532,14747.429731894059
0.000534,14752.114725019052
0.000536,14757.071979339022
0.000538,14762.296336902784
0.00054,14767.78211741987
0.000542,14773.523136093321
0.000544,14779.512722110454
0.000546,14785.743737774686
0.000548,14792.20859826115
0.00055,14798.899291978369
0.000552,14805.807401517086
0.000554,14812.924125166006
0.000556,14820.240298972398
0.000558,14827.746419323219
0.00056,14835.432666020306
0.000562,14843.288925820421
0.000564,14851.304816408547
0.000566,14859.469710770145
0.000568,14867.772761925737
0.00057,14876.202927988872
0.000572,14884.748997506567
0.000574,14893.399615039281
0.000576,14902.143306935866
0.000578,14910.96850725731
0.00058,14919.863583801713
0.000582,14928.816864181588
0.000584,14937.816661903355
0.000586,14946.851302397761
0.000588,14955.909148948724
0.00059,14964.978628467108
0.000592,14974.048257054785
0.000594,14983.10666530319
0.000596,14992.142623269385
0.000598,15001.145065071421
0.0006,15010.103113043553
0.000602,15019.006101390656
0.000604,15027.843599280044
0.000606,15036.605433307988
0.000608,15045.281709277495
0.00061,15053.862833223651
0.000612,15062.339531622829
0.000614,15070.702870722685
0.000616,15078.944274931036
0.000618,15087.055544203264
0.00062,15095.028870370299
0.000622,15102.85685235198
0.000624,15110.53251020413
0.000626,15118.049297951715
0.000628,15125.40111516518
0.00063,15132.582317242315
0.000632,15139.58772436391
0.000634,15146.412629097766
0.000636,15153.05280263251
0.000638,15159.50449962974
0.00064,15165.76446169045
0.000642,15171.829919439167
0.000644,15177.698593236617
0.000646,15183.368692539156
0.000648,15188.838913930094
0.00065,15194.108437854775
0.000652,15199.176924097274
0.000654,15204.044506042203
0.000656,15208.711783769826
0.000658,15213.179816036909
0.00066,15217.450111198843
0.000662,15221.524617131092
0.000664,15225.405710209485
0.000666,15229.096183409574
0.000668,15232.599233585253
0.00067,15235.918447986085
0.000672,15239.057790071449
0.000674,15242.021584677888
0.000676,15244.814502593827
0.000678,15247.441544593365
0.00068,15249.90802497822
0.000682,15252.219554673897
0.000684,15254.382023923401
0.000686,15256.401584618838
0.000688,15258.284632308609
0.00069,15260.037787915366
0.000692,15261.667879197783
0.000694,15263.181921987254
0.000696,15264.587101229332
0.000698,15265.890751858538
0.0007,15267.100339534592
0.000702,15268.22344126762
0.000704,15269.2677259598
0.000706,15270.24093489091
0.000708,15271.150862175575
0.00071,15272.005335220229
0.000712,15272.812195208373
0.000714,15273.579277643134
0.000716,15274.31439297651
0.000718,15275.025307355207
0.00072,15275.719723513099
0.000722,15276.40526184033
0.000724,15277.08944165885
0.000726,15277.779662733486
0.000728,15278.483187046872
0.00073,15279.20712086561
0.000732,15279.958397123828
0.000734,15280.74375814926
0.000736,15281.569738755948
0.000738,15282.442649726843
0.00074,15283.368561708858
0.000742,15284.353289542481
0.000744,15285.402377047643
0.000746,15286.521082287198
0.000748,15287.714363329129
0.00075,15288.98686452818
0.000752,15290.342903347146
0.000754,15291.786457737586
0.000756,15293.32115409903
0.000758,15294.950255835001
0.00076,15296.676652523465
0.000762,15298.5028497184
0.000764,15300.43095939827
0.000766,15302.462691076147
0.000768,15304.599343585092
0.00077,15306.841797551167
0.000772,15309.190508564985
0.000774,15311.645501061123
0.000776,15314.206362913175
0.000778,15316.872240750463
0.00078,15319.641836000972
0.000782,15322.513401663608
0.000784,15325.484739811624
0.000786,15328.553199828184
0.000788,15331.71567737428
0.00079,15334.968614088837
0.000792,15338.307998020664
0.000794,15341.729364792009
0.000796,15345.227799493574
0.000798,15348.797939311356
0.0008,15352.433976886026
0.000802,15356.12966440617
0.000804,15359.878318437115
0.000806,15363.672825487523
0.000808,15367.50564831624
0.00081,15371.368832981989
0.000812,15375.254016638326
0.000814,15379.152436075787
0.000816,15383.054937012297
0.000818,15386.951984131761
0.00082,15390.833671869084
0.000822,15394.689735938116
0.000824,15398.50956559681
0.000826,15402.28221664157
0.000828,15405.996425120442
0.00083,15409.640621752502
0.000832,15413.202947038637
0.000834,15416.67126704706
0.000836,15420.033189855376
0.000838,15423.276082629885
0.00084,15426.387089322043
0.000842,15429.353148961594
0.000844,15432.161014525956
0.000846,15434.797272365442
0.000848,15437.248362164266
0.00085,15439.500597417475
0.000852,15441.540186404103
0.000854,15443.353253636762
0.000856,15444.925861767459
0.000858,15446.244033928826
0.00086,15447.293776488885
0.000862,15448.061102196214
0.000864,15448.532053690762
0.000866,15448.692727353802
0.000868,15448.529297468409
0.00087,15448.028040659607
0.000872,15447.175360580963
0.000874,15445.957812811715
0.000876,15444.362129925772
0.000878,15442.375246690977
0.00088,15439.984325354062
0.000882,15437.176780963595
0.000884,15433.94030668046
0.000886,15430.262899022662
0.000888,15426.132882988886
0.00089,15421.538937003272
0.000892,15416.470117622192
0.000894,15410.915883942704
0.000896,15404.86612165149
0.000898,15398.311166652527
0.0009,15391.241828211681
0.000902,15383.649411556242
0.000904,15375.52573986775
0.000906,15366.863175606717
0.000908,15357.654641108446
0.00091,15347.893638389594
0.000912,15337.574268106055
0.000914,15326.691247603354
0.000916,15315.239928001785
0.000918,15303.216310259379
0.00092,15290.617060156925
0.000922,15277.439522150411
0.000924,15263.681732037678
0.000926,15249.342428387703
0.000928,15234.421062682974
0.00093,15218.917808127824
0.000932,15202.833567078756
0.000934,15186.169977056208
0.000936,15168.92941530168
0.000938,15151.115001848792
0.00094,15132.730601082463
0.000942,15113.780821766284
0.000944,15094.271015524675
0.000946,15074.207273773307
0.000948,15053.596423098514
0.00095,15032.446019093863
0.000952,15010.76433866989
0.000954,14988.560370860636
0.000956,14965.843806158398
0.000958,14942.625024415385
0.00096,14918.915081357913
0.000962,14894.72569376509
0.000964,14870.069223369399
0.000966,14844.958659541164
0.000968,14819.407600822524
0.00097,14793.43023537901
0.000972,14767.041320438651
0.000974,14740.25616078905
0.000976,14713.090586403023
0.000978,14685.560929262492
0.00098,14657.683999448973
0.000982,14629.47706056718
0.000984,14600.957804566071
0.000986,14572.14432601916
0.000988,14543.055095923368
0.00099,14513.70893507315
0.000992,14484.124987064235
0.000994,14454.322690978981
0.000996,14424.321753803384
0.000998,14394.14212262392
0.001,14363.803956650696
0.001002,14333.327599111872
0.001004,14302.733549062801
0.001006,14272.042433151673
0.001008,14241.274977381847
0.00101,14210.451978909266
0.001012,14179.594277911683
0.001014,14148.722729564617
0.001016,14117.858176157673
0.001018,14087.02141938341
0.00102,14056.233192830243
0.001022,14025.514134710147
0.001024,13994.88476085183
0.001026,13964.36543798987
0.001028,13933.976357380623
0.00103,13903.737508775808
0.001032,13873.668654785242
0.001034,13843.789305660233
0.001036,13814.118694529687
0.001038,13784.67575312121
0.00104,13755.479087999642
0.001042,13726.546957355737
0.001044,13697.897248377587
0.001046,13669.547455237183
0.001048,13641.514657723872
0.00105,13613.815500555496
0.001052,13586.466173396557
0.001054,13559.482391610705
0.001056,13532.879377772744
0.001058,13506.671843962455
0.00106,13480.873974859893
0.001062,13455.499411658695
0.001064,13430.561236811141
0.001066,13406.071959615787
0.001068,13382.043502655879
0.00107,13358.487189094376
0.001072,13335.41373082912
0.001074,13312.83321750985
0.001076,13290.75510641721
0.001078,13269.188213202555
0.00108,13248.140703486652
0.001082,13227.62008531482
0.001084,13207.633202466113
0.001086,13188.186228614379
0.001088,13169.28466233959
0.00109,13150.933322988454
0.001092,13133.136347383828
0.001094,13115.89718738306
0.001096,13099.218608285368
0.001098,13083.102688088595
0.0011,13067.550817595069
0.001102,13052.56370136599
0.001104,13038.14135952284
0.001106,13024.283130393727
0.001108,13010.987674001577
0.00111,12998.252976390357
0.001112,12986.076354784604
0.001114,12974.45446357669
0.001116,12963.383301135591
0.001118,12952.858217430039
0.00112,12942.873922458479
0.001122,12933.424495477548
0.001124,12924.503395020472
0.001126,12916.103469696476
0.001128,12908.216969762227
0.00113,12900.835559456298
0.001132,12893.950330087791
0.001134,12887.551813870237
0.001136,12881.629998491979
0.001138,12876.174342414166
0.00114,12871.173790887293
0.001142,12866.616792676843
0.001144,12862.491317488037
0.001146,12858.784874078945
0.001148,12855.484529050376
0.00115,12852.576926299713
0.001152,12850.048307124674
0.001154,12847.884530961423
0.001156,12846.071096739763
0.001158,12844.593164836413
0.00116,12843.435579605219
0.001162,12842.582892461367
0.001164,12842.019385494565
0.001166,12841.729095584229
0.001168,12841.695838988186
0.00117,12841.903236374557
0.001172,12842.33473826538
0.001174,12842.973650859185
0.001176,12843.803162198872
0.001178,12844.806368650317
0.00118,12845.966301656223
0.001182,12847.265954728882
0.001184,12848.688310644417
0.001186,12850.216368799931
0.001188,12851.833172693718
0.00119,12853.521837486933
0.001192,12855.265577603555
0.001194,12857.04773432339
0.001196,12858.851803320806
0.001198,12860.661462099653
0.0012,12862.460597272475
0.001202,12864.2333316297
0.001204,12865.96405094214
0.001206,12867.6374304379
0.001208,12869.238460892831
0.00121,12870.752474271805
0.001212,12872.165168856853
0.001214,12873.462633797093
0.001216,12874.631373015034
0.001218,12875.65832840381
0.00122,12876.530902250486
0.001222,12877.23697882159
0.001224,12877.764945048557
0.001226,12878.103710252804
0.001228,12878.242724852515
0.00123,12878.171997996054
0.001232,12877.8821140702
0.001234,12877.364248034799
0.001236,12876.610179539575
0.001238,12875.612305782826
0.00124,12874.363653076276
0.001242,12872.857887084892
0.001244,12871.089321715168
0.001246,12869.052926630147
0.001248,12866.744333374294
0.00125,12864.159840096067
0.001252,12861.29641486087
0.001254,12858.151697551953
0.001256,12854.724000361724
0.001258,12851.012306881032
0.00126,12847.016269799135
0.001262,12842.736207232185
0.001264,12838.17309770326
0.001266,12833.32857380211
0.001268,12828.204914557708
0.00127,12822.805036561514
0.001272,12817.132483883872
0.001274,12811.19141683017
0.001276,12804.986599587353
0.001278,12798.523386814855
0.00128,12791.80770923715
0.001282,12784.846058297737
0.001284,12777.645469936451
0.001286,12770.213507553493
0.001288,12762.558244224441
0.00129,12754.688244230645
0.001292,12746.612543968964
0.001294,12738.340632303672
0.001296,12729.882430421476
0.001298,12721.248271248294
0.0013,12712.44887848338
0.001302,12703.495345302978
0.001304,12694.399112781843
0.001306,12685.171948076813
0.001308,12675.825922412356
0.00131,12666.373388903668
0.001312,12656.826960248893
0.001314,12647.199486318035
0.001316,12637.504031663037
0.001318,12627.753852970445
0.00132,12617.962376476082
0.001322,12608.143175359695
0.001324,12598.309947136686
0.001326,12588.4764910641
0.001328,12578.656685578397
0.00133,12568.864465783536
0.001332,12559.113801009331
0.001334,12549.418672461612
0.001336,12539.793050987744
0.001338,12530.250874983154
0.00134,12520.806028466668
0.001342,12511.472319354703
0.001344,12502.263457966379
0.001346,12493.193035793474
0.001348,12484.274504570521
0.00135,12475.521155681316
0.001352,12466.946099938317
0.001354,12458.562247771191
0.001356,12450.38228985977
0.001358,12442.418678245253
0.00136,12434.683607951652
0.001362,12427.188999147273
0.001364,12419.946479873619
0.001366,12412.967369366701
0.001368,12406.262661993087
0.00137,12399.843011820509
0.001372,12393.718717840224
0.001374,12387.899709855894
0.001376,12382.395535051259
0.001378,12377.215345246681
0.00138,12372.367884852658
0.001382,12367.86147952678
0.001384,12363.704025539493
0.001386,12359.902979853257
0.001388,12356.465350919458
0.00139,12353.397690197473
0.001392,12350.706084400636
0.001394,12348.396148474243
0.001396,12346.473019311232
0.001398,12344.941350211247
0.0014,12343.805306088954
0.001402,12343.068559437093
0.001404,12342.73428704938
0.001406,12342.805167507524
0.001408,12343.283379435989
0.00141,12344.170600527052
0.001412,12345.468007337944
0.001414,12347.176275860927
0.001416,12349.295582866278
0.001418,12351.825608017278
0.00142,12354.765536755429
0.001422,12358.114063953086
0.001424,12361.869398329805
0.001426,12366.029267627642
0.001428,12370.590924539569
0.00143,12375.551153384235
0.001432,12380.906277519247
0.001434,12386.65216748439
0.001436,12392.784249865363
0.001438,12399.297516868166
0.00144,12406.186536593681
0.001442,12413.445464001778
0.001444,12421.068052554016
0.001446,12429.04766652392
0.001448,12437.377293963591
0.00145,12446.04956031527
0.001452,12455.056742656081
0.001454,12464.390784563744
0.001456,12474.043311590362
0.001458,12484.005647330438
0.00146,12494.268830068137
0.001462,12504.823629987373
0.001464,12515.660566926746
0.001466,12526.76992865947
0.001468,12538.141789676558
0.00147,12549.766030449135
0.001472,12561.632357143595
0.001474,12573.730321760757
0.001476,12586.049342667813
0.001478,12598.578725489484
0.00148,12611.307684322608
0.001482,12624.22536323649
0.001484,12637.320858019746
0.001486,12650.583238133207
0.001488,12664.00156882766
0.00149,12677.564933384634
0.001492,12691.262455438302
0.001494,12705.08332133631
0.001496,12719.016802497239
0.001498,12733.052277722105
0.0015,12747.179255416495
0.001502,12761.387395679238
0.001504,12775.666532212068
0.001506,12790.006694003267
0.001508,12804.398126736427
0.00151,12818.831313873512
0.001512,12833.296997359397
0.001514,12847.786197893145
0.001516,12862.290234709466
0.001518,12876.800744812292
0.00152,12891.309701601042
0.001522,12905.80943282942
0.001524,12920.292637836048
0.001526,12934.752403986427
0.001528,12949.182222266307
0.00153,12963.576001967875
0.001532,12977.928084412044
0.001534,12992.233255652789
0.001536,13006.486758112836
0.001538,13020.684301103813
0.00154,13034.822070188675
0.001542,13048.896735349006
0.001544,13062.905457925319
0.001546,13076.845896304012
0.001548,13090.716210330409
0.00155,13104.515064433062
0.001552,13118.241629450124
0.001554,13131.89558315423
0.001556,13145.477109477575
0.001558,13158.986896444096
0.00156,13172.426132820505
0.001562,13185.79650350267
0.001564,13199.100183658325
0.001566,13212.33983165144
0.001568,13225.518580777773
0.00157,13238.64002984521
0.001572,13251.708232636345
0.001574,13264.727686294598
0.001576,13277.703318678641
0.001578,13290.640474733495
0.00158,13303.544901929625
0.001582,13316.42273482453
0.001584,13329.280478803861
0.001586,13342.124993061681
0.001588,13354.963472881509
0.00159,13367.803431281745
0.001592,13380.652680090512
0.001594,13393.519310516005
0.001596,13406.411673279108
0.001598,13419.338358375
0.0016,13432.30817452991
0.001602,13445.33012841784
0.001604,13458.41340370002
0.001606,13471.567339947014
0.001608,13484.801411500002
0.00161,13498.125206323659
0.001612,13511.548404898494
0.001614,13525.080759195622
0.001616,13538.732071771794
0.001618,13552.51217501741
0.00162,13566.430910585012
0.001622,13580.498109021004
0.001624,13594.723569618696
0.001626,13609.117040506748
0.001628,13623.688198983617
0.00163,13638.446632105728
0.001632,13653.401817535076
0.001634,13668.563104650535
0.001636,13683.939695926714
0.001638,13699.540628584316
0.00164,13715.374756516994
0.001642,13731.450732501136
0.001644,13747.776990697184
0.001646,13764.361729453321
0.001648,13781.212894425094
0.00165,13798.338162026976
0.001652,13815.744923234506
0.001654,13833.440267757715
0.001656,13851.430968608522
0.001658,13869.72346708628
0.00166,13888.323858206659
0.001662,13907.237876599555
0.001664,13926.470882901875
0.001666,13946.027850670396
0.001668,13965.913353839136
0.00167,13986.131554744195
0.001672,14006.686192737276
0.001674,14027.580573406953
0.001676,14048.817558424375
0.001678,14070.399556027609
0.00168,14092.328512156317
0.001682,14114.60590224598
0.001684,14137.232723688661
0.001686,14160.209488965282
0.001688,14183.536219452631
0.00169,14207.212439907089
0.001692,14231.237173625794
0.001694,14255.6089382854
0.001696,14280.325742457891
0.001698,14305.385082802763
0.0017,14330.783941934842
0.001702,14356.5187869671
0.001704,14382.585568728111
0.001706,14408.97972165426
0.001708,14435.696164357345
0.00171,14462.729300868748
0.001712,14490.073022561903
0.001714,14517.720710755239
0.001716,14545.665239997845
0.001718,14573.8989820402
0.00172,14602.413810491986
0.001722,14631.201106168583
0.001724,14660.251763127246
0.001726,14689.556195393143
0.001728,14719.104344374833
0.00173,14748.885686967926
0.001732,14778.889244345031
0.001734,14809.103591429473
0.001736,14839.516867049688
0.001738,14870.11678477068
0.00174,14900.890644398543
0.001742,14931.825344153596
0.001744,14962.907393507166
0.001746,14994.122926676711
0.001748,15025.45771677346
0.00175,15056.897190596255
0.001752,15088.426444064668
0.001754,15120.030258283909
0.001756,15151.693116233106
0.001758,15183.39922006779
0.00176,15215.132509026182
0.001762,15246.876677927734
0.001764,15278.615196250821
0.001766,15310.331327774878
0.001768,15342.008150770445
0.00177,15373.628578718637
0.001772,15405.175381539475
0.001774,15436.631207306415
0.001776,15467.978604422322
0.001778,15499.200044230069
0.00178,15530.277944028901
0.001782,15561.194690465833
0.001784,15591.932663269501
0.001786,15622.474259292201
0.001788,15652.801916824226
0.00179,15682.898140143128
0.001792,15712.745524259117
0.001794,15742.326779816482
0.001796,15771.62475810972
0.001798,15800.62247617189
0.0018,15829.30314189159
0.001802,15857.65017911399
0.001804,15885.647252680265
0.001806,15913.278293358782
0.001808,15940.527522620385
0.00181,15967.379477208917
0.001812,15993.819033457024
0.001814,16019.831431295988
0.001816,16045.40229790708
0.001818,16070.517670960655
0.00182,16095.164021387902
0.001822,16119.328275629032
0.001824,16142.997837300712
0.001826,16166.160608224796
0.001828,16188.805008759937
0.00183,16210.91999737762
0.001832,16232.495089424363
0.001834,16253.520375012728
0.001836,16273.986535984852
0.001838,16293.884861893855
0.00184,16313.207264950504
0.001842,16331.946293884812
0.001844,16350.095146675263
0.001846,16367.647682101288
0.001848,16384.598430078306
0.00185,16400.942600738425
0.001852,16416.676092224283
0.001854,16431.795497167936
0.001856,16446.29810783184
0.001858,16460.18191989405
0.00186,16473.445634865184
0.001862,16486.088661130278
0.001864,16498.11111361432
0.001866,16509.51381207577
0.001868,16520.29827803795
0.00187,16530.466730373337
0.001872,16540.02207956107
0.001874,16548.96792064272
0.001876,16557.30852490605
0.001878,16565.048830330652
0.00188,16572.194430833482
0.001882,16578.751564355767
0.001884,16584.727099836193
0.001886,16590.128523118077
0.001888,16594.96392184078
0.00189,16599.24196936783
0.001892,16602.971907806073
0.001894,16606.1635301718
0.001896,16608.827161761255
0.001898,16610.973640784054
0.0019,16612.61429831904
0.001902,16613.7609376528
0.001904,16614.425813061556
0.001906,16614.621608097066
0.001908,16614.361413436916
0.00191,16613.658704358444
0.001912,16612.52731789433
0.001914,16610.981429725754
0.001916,16609.035530866586
0.001918,16606.704404189233
0.00192,16604.003100839367
0.001922,16600.94691658334
0.001924,16597.551368128232
0.001926,16593.832169450605
0.001928,16589.805208166115
0.00193,16585.486521968145
0.001932,16580.892275159724
0.001934,16576.038735299393
0.001936,16570.942249978212
0.001938,16565.619223741905
0.00194,16560.086095169685
0.001942,16554.359314119138
0.001944,16548.455319145214
0.001946,16542.390515100626
0.001948,16536.181250924885
0.00195,16529.843797630074
0.001952,16523.394326492435
0.001954,16516.848887460936
0.001956,16510.223387796006
0.001958,16503.533570954263
0.00196,16496.794995737775
0.001962,16490.02301572914
0.001964,16483.232759036335
0.001966,16476.43910837378
0.001968,16469.656681507997
0.00197,16462.899812097985
0.001972,16456.182530961243
0.001974,16449.518547796833
0.001976,16442.921233396446
0.001978,16436.403602373754
0.00198,16429.978296440688
0.001982,16423.657568257764
0.001984,16417.453265883407
0.001986,16411.376817844925
0.001988,16405.43921885177
0.00199,16399.65101616921
0.001992,16394.022296668485
0.001994,16388.562674567456
0.001996,16383.281279873745
0.001998,16378.186747540536
0.002,16373.287207343701
0.002002,16368.590274487313
0.002004,16364.103040943413
0.002006,16359.832067530835
0.002008,16355.783376737083
0.00201,16351.962446286567
0.002012,16348.37420345819
0.002014,16345.02302015496
0.002016,16341.912708728118
0.002018,16339.046518558325
0.00202,16336.427133396328
0.002022,16334.056669465577
0.002024,16331.93667432922
0.002026,16330.068126523884
0.002028,16328.45143596253
0.00203,16327.086445108627
0.002032,16325.972430923624
0.002034,16325.108107589436
0.002036,16324.49163000725
0.002038,16324.120598073392
0.00204,16323.992061732333
0.002042,16324.102526806018
0.002044,16324.447961597849
0.002046,16325.02380426853
0.002048,16325.824970979906
0.00205,16326.845864801811
0.002052,16328.080385375839
0.002054,16329.52193932871
0.002056,16331.163451426868
0.002058,16332.997376462714
0.00206,16335.015711861666
0.002062,16337.21001099805
0.002064,16339.571397206399
0.002066,16342.090578473524
0.002068,16344.75786279516
0.00207,16347.56317417969
0.002072,16350.496069279874
0.002074,16353.545754631976
0.002076,16356.701104480002
0.002078,16359.950679160998
0.00208,16363.282744025482
0.002082,16366.685288865128
0.002084,16370.146047817758
0.002086,16373.65251971771
0.002088,16377.191988857725
0.00209,16380.751546126556
0.002092,16384.318110485114
0.002094,16387.878450742435
0.002096,16391.41920759184
0.002098,16394.92691586682
0.0021,16398.388026975794
0.002102,16401.788931474435
0.002104,16405.115981734303
0.002106,16408.35551466623
0.002108,16411.49387445703
0.00211,16414.51743527789
0.002112,16417.412623922617
0.002114,16420.165942333784
0.002116,16422.76398997419
0.002118,16425.193486000706
0.00212,16427.441291196814
0.002122,16429.49442961937
0.002124,16431.340109914207
0.002126,16432.965746254016
0.002128,16434.358978851036
0.00213,16435.507693995914
0.002132,16436.40004357322
0.002134,16437.024464003513
0.002136,16437.369694561457
0.002138,16437.42479501963
0.00214,16437.179162568238
0.002142,16436.622547962044
0.002144,16435.745070847395
0.002146,16434.537234224223
0.002148,16432.989938000475
0.00215,16431.094491599204
0.002152,16428.84262558182
0.002154,16426.226502254547
0.002156,16423.238725228704
0.002158,16419.87234790977
0.00216,16416.12088089414
0.002162,16411.978298257003
0.002164,16407.439042719277
0.002166,16402.498029685827
0.002168,16397.15065015202
0.00217,16391.392772479907
0.002172,16385.22074304985
0.002174,16378.631385797535
0.002176,16371.622000650459
0.002178,16364.19036088166
0.00218,16356.334709402316
0.002182,16348.053754018205
0.002184,16339.34666167845
0.002186,16330.213051748211
0.002188,16320.652988340129
0.00219,16310.666971742401
0.002192,16300.255928984428
0.002194,16289.421203583746
0.002196,16278.164544520816
0.002198,16266.488094490713
0.0022,16254.39437748314
0.002202,16241.886285744105
0.002204,16228.967066174197
0.002206,16215.64030621934
0.002208,16201.909919310476
0.00221,16187.78012990842
0.002212,16173.255458209458
0.002214,16158.340704565837
0.002216,16143.04093367327
0.002218,16127.361458575137
0.00222,16111.307824529958
0.002222,16094.885792785293
0.002224,16078.101324297533
0.002226,16060.960563433087
0.002228,16043.46982168255
0.00223,16025.635561415394
0.002232,16007.464379699075
0.002234,15988.962992202807
0.002236,15970.138217203094
0.002238,15950.996959705357
0.00224,15931.54619569341
0.002242,15911.792956516696
0.002244,15891.744313423429
0.002246,15871.407362246542
0.002248,15850.789208248383
0.00225,15829.896951129449
0.002252,15808.737670206083
0.002254,15787.318409761954
0.002256,15765.64616457823
0.002258,15743.727865647654
0.00226,15721.570366078346
0.002262,15699.180427193825
0.002264,15676.564704836775
0.002266,15653.72973588509
0.002268,15630.68192499008
0.00227,15607.427531547959
0.002272,15583.972656917169
0.002274,15560.323231895474
0.002276,15536.48500447204
0.002278,15512.463527871154
0.00228,15488.264148905364
0.002282,15463.891996657214
0.002284,15439.351971509726
0.002286,15414.648734547205
0.002288,15389.786697348685
0.00229,15364.770012197529
0.002292,15339.602562731274
0.002294,15314.287955056416
0.002296,15288.829509352765
0.002298,15263.230251991788
0.0023,15237.492908192355
0.002302,15211.61989523602
0.002304,15185.613316262
0.002306,15159.474954659834
0.002308,15133.20626907497
0.00231,15106.808389039823
0.002312,15080.282111239849
0.002314,15053.627896421318
0.002316,15026.84586694472
0.002318,14999.935804985042
0.00232,14972.897151377934
0.002322,14945.729005108558
0.002324,14918.43012343835
0.002326,14890.998922663526
0.002328,14863.433479498326
0.00233,14835.731533075614
0.002332,14807.890487557548
0.002334,14779.907415349564
0.002336,14751.77906091185
0.002338,14723.501845163635
0.00234,14695.071870477072
0.002342,14666.484926258763
0.002344,14637.736495118561
0.002346,14608.821759626353
0.002348,14579.735609658614
0.00235,14550.472650337328
0.002352,14521.02721056421
0.002354,14491.393352153329
0.002356,14461.564879564949
0.002358,14431.535350242782
0.00236,14401.298085555776
0.002362,14370.846182344121
0.002364,14340.172525067457
0.002366,14309.26979855102
0.002368,14278.13050132301
0.00237,14246.746959533846
0.002372,14215.11134144511
0.002374,14183.21567247324
0.002376,14151.05185077024
0.002378,14118.611663321208
0.00238,14085.886802536013
0.002382,14052.86888331045
0.002384,14019.549460530188
0.002386,13985.92004698929
0.002388,13951.972131693508
0.00239,13917.697198517331
0.002392,13883.086745182636
0.002394,13848.132302525717
0.002396,13812.82545401865
0.002398,13777.157855510128
0.0024,13741.121255150165
0.002402,13704.707513462508
0.002404,13667.908623527886
0.002406,13630.71673124069
0.002408,13593.124155600968
0.00241,13555.123409002885
0.002412,13516.707217480038
0.002414,13477.868540866995
0.002416,13438.600592835503
0.002418,13398.896860762652
0.00242,13358.751125387274
0.002422,13318.157480209655
0.002424,13277.11035058857
0.002426,13235.604512488726
0.002428,13193.63511083051
0.00243,13151.197677393331
0.002432,13108.288148222893
0.002434,13064.90288049236
0.002436,13021.038668766847
0.002438,12976.69276062079
0.00244,12931.86287155791
0.002442,12886.547199184199
0.002444,12840.744436585317
0.002446,12794.453784861334
0.002448,12747.67496477344
0.00245,12700.408227459577
0.002452,12652.65436417842
0.002454,12604.414715044013
0.002456,12555.691176716415
0.002458,12506.48620901682
0.00246,12456.802840439099
0.002462,12406.64467253299
0.002464,12356.015883137694
0.002466,12304.921228448136
0.002468,12253.366043899729
0.00247,12201.356243861143
0.002472,12148.898320128368
0.002474,12095.999339217184
0.002476,12042.666938455171
0.002478,11988.909320878498
0.00248,11934.735248942936
0.002482,11880.154037062879
0.002484,11825.175542996565
0.002486,11769.810158099945
0.002488,11714.068796476073
0.00249,11657.962883051063
0.002492,11601.50434061173
0.002494,11544.705575843866
0.002496,11487.579464413784
0.002498,11430.139335139012
0.0025,11372.398953297099
0.002502,11314.372503124136
0.002504,11256.074569556855
0.002506,11197.52011927395
0.002508,11138.724481093635
0.00251,11079.703325785282
0.002512,11020.47264535329
0.002514,10961.04873185111
0.002516,10901.448155782657
0.002518,10841.687744147055
0.00252,10781.784558181136
0.002522,10721.755870852017
0.002524,10661.619144149832
0.002526,10601.392006228154
0.002528,10541.092228436946
0.00253,10480.737702290095
0.002532,10420.346416406699
0.002534,10359.936433462535
0.002536,10299.525867185192
0.002538,10239.13285942374
0.00254,10178.775557321038
0.002542,10118.472090614265
0.002544,10058.240549086768
0.002546,9998.098960192076
0.002548,9938.06526686875
0.00255,9878.157305562903
0.002552,9818.39278447347
0.002554,9758.789262033955
0.002556,9699.364125643131
0.002558,9640.134570656262
0.00256,9581.117579647815
0.002562,9522.3299019562
0.002564,9463.788033521052
0.002566,9405.508197023717
0.002568,9347.506322342171
0.00257,9289.7980273324
0.002572,9232.398598949227
0.002574,9175.322974720908
0.002576,9118.585724593022
0.002578,9062.201033158677
0.00258,9006.182682293427
0.002582,8950.544034214694
0.002584,8895.298014986725
0.002586,8840.457098493329
0.002588,8786.033290901656
0.00259,8732.038115641208
0.002592,8678.482598922988
0.002594,8625.377255824314
0.002596,8572.732076965234
0.002598,8520.556515802751
0.0026,8468.859476569112
0.002602,8417.649302880252
0.002604,8366.933767040047
0.002606,8316.720060065369
0.002608,8267.014782455894
0.00261,8217.823935731245
0.002612,8169.152914756403
0.002614,8121.006500874149
0.002616,8073.388855860845
0.002618,8026.303516719089
0.00262,7979.753391317665
0.002622,7933.740754886026
0.002624,7888.267247367268
0.002626,7843.333871630331
0.002628,7798.940992539042
0.00263,7755.088336872918
0.002632,7711.774994092032
0.002634,7668.999417936267
0.002636,7626.759428847543
0.002638,7585.052217202395
0.00264,7543.874347341451
0.002642,7503.221762382046
0.002644,7463.089789800269
0.002646,7423.473147769234
0.002648,7384.365952241303
0.00265,7345.7617247631415
0.002652,7307.653401014067
0.002654,7270.033340059604
0.002656,7232.893334313885
0.002658,7196.2246202058695
0.00266,7160.017889545568
0.002662,7124.263301587299
0.002664,7088.950495787358
0.002666,7054.068605253493
0.002668,7019.606270883046
0.00267,6985.551656185852
0.002672,6951.892462786772
0.002674,6918.615946601343
0.002676,6885.7089346763605
0.002678,6853.157842685252
0.00268,6820.948693066048
0.002682,6789.067133787415
0.002684,6757.498457725721
0.002686,6726.227622633465
0.002688,6695.239271676548
0.00269,6664.5177545152
0.002692,6634.047148900677
0.002694,6603.8112827574505
0.002696,6573.793756718495
0.002698,6543.977967079535
0.0027,6514.347129136664
0.002702,6484.884300870758
0.002704,6455.572406941287
0.002706,6426.394262951524
0.002708,6397.332599946675
0.00271,6368.370089106022
0.002712,6339.489366589714
0.002714,6310.673058500411
0.002716,6281.9038059193535
0.002718,6253.164289975876
0.00272,6224.4372569086145
0.002722,6195.705543075966
0.002724,6166.95209987251
0.002726,6138.160018507252
0.002728,6109.312554598575
0.00273,6080.393152539907
0.002732,6051.385469589129
0.002734,6022.273399633921
0.002736,5993.041096584488
0.002738,5963.672997344509
0.00274,5934.1538443108675
0.002742,5904.468707352653
0.002744,5874.603005220214
0.002746,5844.542526335584
0.002748,5814.273448916431
0.00275,5783.7823603868455
0.002752,5753.056276029596
0.002754,5722.082656836115
0.002756,5690.849426512164
0.002758,5659.344987599029
0.00276,5627.55823667203
0.002762,5595.478578580307
0.002764,5563.095939694004
0.002766,5530.400780127342
0.002768,5497.384104908555
0.00277,5464.037474070359
0.002772,5430.353011637522
0.002774,5396.323413491205
0.002776,5361.941954093119
0.002778,5327.202492056133
0.00278,5292.099474551836
0.002782,5256.62794054963
0.002784,5220.783522886169
0.002786,5184.562449168303
0.002788,5147.961541517107
0.00279,5110.97821516506
0.002792,5073.610475922818
0.002794,5035.8569165365225
0.002796,4997.716711960747
0.002798,4959.189613576484
0.0028,4920.275942387525
0.002802,4880.976581232391
0.002804,4841.292966052499
0.002806,4801.2270762603775
0.002808,4760.7814242545255
0.00281,4719.959044129753
0.002812,4678.763479633691
0.002814,4637.19877142134
0.002816,4595.26944366033
0.002818,4552.980490039687
0.00282,4510.337359234655
0.002822,4467.3459398792875
0.002824,4424.012545097294
0.002826,4380.3438966399835
0.002828,4336.347108678161
0.00283,4292.029671292538
0.002832,4247.399433704822
0.002834,4202.464587288994
0.002836,4157.233648399678
0.002838,4111.715441051827
0.00284,4065.9190794833744
0.002842,4019.8539506299853
0.002844,3973.529696538681
0.002846,3926.9561967449
0.002848,3880.143550635498
0.00285,3833.102059818293
0.002852,3785.84221051696
0.002854,3738.374656008411
0.002856,3690.7101991181808
0.002858,3642.859774787891
0.00286,3594.8344327274044
0.002862,3546.6453201630407
0.002864,3498.303664692046
0.002866,3449.82075725257
0.002868,3401.2079352176543
0.00287,3352.4765656212307
0.002872,3303.638028523793
0.002874,3254.703700525292
0.002876,3205.684938432862
0.002878,3156.593063091291
0.00288,3107.439343384666
0.002882,3058.234980418375
0.002884,3008.9910918916325
0.002886,2959.7186966719214
0.002888,2910.4286995842604
0.00289,2861.1318764299194
0.002892,2811.8388592511183
0.002894,2762.5601218602837
0.002896,2713.305965654485
0.002898,2664.0865057377164
0.0029,2614.9116573755537
0.002902,2565.7911228083917
0.002904,2516.7343784508403
0.002906,2467.750662505962
0.002908,2418.848963023794
0.00291,2370.038006434017
0.002912,2321.32624658267
0.002914,2272.721854302494
0.002916,2224.2327075457006
0.002918,2175.8663821068094
0.00292,2127.6301429615855
0.002922,2079.530936246042
0.002924,2031.5753818970245
0.002926,1983.7697669730867
0.002928,1936.1200396712964
0.00293,1888.6318040523665
0.002932,1841.3103154832072
0.002934,1794.1604768027275
0.002936,1747.1868352135712
0.002938,1700.3935798995394
0.00294,1653.7845403658018
0.002942,1607.3631854967239
0.002944,1561.1326233242723
0.002946,1515.0956014985913
0.002948,1469.2545084514286
0.00295,1423.6113752426895
0.002952,1378.1678780804134
0.002954,1332.9253415048652
0.002956,1287.884742228106
0.002958,1243.0467136212317
0.00296,1198.411550842385
0.002962,1153.9792165995168
0.002964,1109.7493475426431
0.002966,1065.7212612809863
0.002968,1021.8939640208353
0.00297,978.2661588202491
0.002972,934.8362544568007
0.002974,891.6023749044016
0.002976,848.5623694148729
0.002978,805.7138231993081
0.00298,763.0540687034222
0.002982,720.5801974699604
0.002984,678.2890725798425
0.002986,636.1773416620837
0.002988,594.2414504606674
0.00299,552.4776569445241
0.002992,510.8820459445935
0.002994,469.45054429966905
0.002996,428.178936490406
0.002998,387.06288073855086
0.003,346.0979255461623
0.003002,305.27952664730265
0.003004,264.6030643423921
0.003006,224.06386118311806
0.003008,183.65719997352528
0.00301,143.3783420506992
0.003012,103.22254580635669
0.003014,63.1850854087266
0.003016,23.261269682427503
0.003018,-16.553538897298797
0.00302,-56.263905140611655
0.003022,-95.87430205456405
0.003024,-135.3890917755365
0.003026,-174.8125065680898
0.003028,-214.14862993554317
0.00303,-253.4013778873323
0.003032,-292.57448040794503
0.003034,-331.67146317203276
0.003036,-370.6956295501744
0.003038,-409.6500429497124
0.00304,-448.5375095350542
0.003042,-487.36056137179776
0.003044,-526.1214400389708
0.003046,-564.8220807535519
0.003048,-603.4640970512663
0.00305,-642.0487660674395
0.003052,-680.5770144614168
0.003054,-719.0494050277664
0.003056,-757.4661240370951
0.003058,-795.8269693488323
0.00306,-834.1313393376984
0.003062,-872.3782226747112
0.003064,-910.5661890024611
0.003066,-948.6933805429094
0.003068,-986.7575046741376
0.00307,-1024.7558275102588
0.003072,-1062.6851685161166
0.003074,-1100.541896185483
0.003076,-1138.3219248082437
0.003078,-1176.0207123486005
0.00308,-1213.6332594526755
0.003082,-1251.1541096000947
0.003084,-1288.5773504102
0.003086,-1325.896616109506
0.003088,-1363.105091162883
0.00309,-1400.195515066721
0.003092,-1437.160188298029
0.003094,-1473.9909794090495
0.003096,-1510.679333252563
0.003098,-1547.2162803185747
0.0031,-1583.5924471585874
0.003102,-1619.7980678691551
0.003104,-1655.8229966019512
0.003106,-1691.6567210632354
0.003108,-1727.2883769614232
0.00311,-1762.706763357554
0.003112,-1797.9003588699074
0.003114,-1832.8573386809123
0.003116,-1867.5655922919266
0.003118,-1902.0127419694265
0.00312,-1936.1861618246608
0.003122,-1970.0729974678702
0.003124,-2003.6601861777065
0.003126,-2036.9344775264497
0.003128,-2069.882454402018
0.00313,-2102.490554368492
0.003132,-2134.745091307976
0.003134,-2166.632277288046
0.003136,-2198.1382446007956
0.003138,-2229.2490679215325
0.00314,-2259.9507865375454
0.003142,-2290.2294265999312
0.003144,-2320.0710233542554
0.003146,-2349.461643308704
0.003148,-2378.3874063013013
0.00315,-2406.834507430638
0.003152,-2434.7892388173523
0.003154,-2462.2380111662974
0.003156,-2489.1673751019
0.003158,-2515.564042251662
0.00316,-2541.414906055084
0.003162,-2566.7070622774722
0.003164,-2591.4278292101953
0.003166,-2615.5647675408686
0.003168,-2639.1056998787662
0.00317,-2662.0387299223385
0.003172,-2684.352261257089
0.003174,-2706.035015773249
0.003176,-2727.0760516935675
0.003178,-2747.464781202292
0.00318,-2767.190987666855
0.003182,-2786.2448424440468
0.003184,-2804.6169212625523
0.003186,-2822.2982201735526
0.003188,-2839.28017106081
0.00319,-2855.5546567010774
0.003192,-2871.1140253649573
0.003194,-2885.95110494732
0.003196,-2900.059216615279
0.003198,-2913.4321879604295
0.0032,-2926.0643656406137
0.003202,-2937.9506274949654
0.003204,-2949.0863941143816
0.003206,-2959.4676398479983
0.003208,-2969.0909032247014
0.00321,-2977.9532967672976
0.003212,-2986.052516175694
0.003214,-2993.3868488544435
0.003216,-2999.9551817593083
0.003218,-3005.7570085371763
0.00322,-3010.7924359337476
0.003222,-3015.0621894439505
0.003224,-3018.567618181019
0.003226,-3021.3106989415937
0.003228,-3023.2940394460243
0.00323,-3024.5208807351933
0.003232,-3024.995098707606
0.003234,-3024.7212047831117
0.003236,-3023.7043456824417
0.003238,-3021.950302314648
0.00324,-3019.465487767532
0.003242,-3016.256944399133
0.003244,-3012.3323400312975
0.003246,-3007.6999632491516
0.003248,-3002.368717812902
0.00325,-2996.348116190688
0.003252,-2989.648272223143
0.003254,-2982.279892931825
0.003256,-2974.2542694847502
0.003258,-2965.583267332937
0.00326,-2956.2793155321565
0.003262,-2946.355395264177
0.003264,-2935.825027571656
0.003266,-2924.702260320681
0.003268,-2913.0016544047644
0.00327,-2900.7382692039496
0.003272,-2887.927647312618
0.003274,-2874.585798549523
0.003276,-2860.7291832635774
0.003278,-2846.3746949489105
0.00328,-2831.539642182755
0.003282,-2816.2417298997625
0.003284,-2800.4990400165193
0.003286,-2784.330011420295
0.003288,-2767.7534193364945
0.00329,-2750.7883540899356
0.003292,-2733.454199275933
0.003294,-2715.7706093582838
0.003296,-2697.757486712551
0.003298,-2679.4349581345805
0.0033,-2660.8233508358967
0.003302,-2641.943167949505
0.003304,-2622.8150635716884
0.003306,-2603.459817367536
0.003308,-2583.898308770256
0.00331,-2564.1514908067184
0.003312,-2544.240363584149
0.003314,-2524.185947475372
0.003316,-2504.009256042422
0.003318,-2483.7312687406443
0.00332,-2463.3729034475814
0.003322,-2442.954988862923
0.003324,-2422.498236827603
0.003326,-2402.023214611803
0.003328,-2381.550317223097
0.00333,-2361.099739787371
0.003332,-2340.6914500564085
0.003334,-2320.345161097109
0.003336,-2300.0803042182356
0.003338,-2279.916002191184
0.00334,-2259.8710428216114
0.003342,-2239.963852928704
0.003344,-2220.2124727884016
0.003346,-2200.6345310960205
0.003348,-2181.247220502467
0.00335,-2162.067273776627
0.003352,-2143.110940644702
0.003354,-2124.393965355259
0.003356,-2105.931565016631
0.003358,-2087.738408751143
0.00336,-2069.8285977084747
0.003362,-2052.215645978351
0.003364,-2034.9124624407625
0.003366,-2017.9313335900306
0.003368,-2001.2839073673094
0.00337,-1984.9811780345658
0.003372,-1969.0334721216902
0.003374,-1953.4504354771154
0.003376,-1938.2410214511399
0.003378,-1923.4134802399383
0.00338,-1908.9753494169258
0.003382,-1894.9334456765785
0.003384,-1881.293857813979
0.003386,-1868.0619409611095
0.003388,-1855.2423120982535
0.00339,-1842.8388468558028
0.003392,-1830.8546776182109
0.003394,-1819.2921929379233
0.003396,-1808.1530382627845
0.003398,-1797.4381179757695
0.0034,-1787.1475987409437
0.003402,-1777.2809141444197
0.003404,-1767.836770613759
0.003406,-1758.8131545939325
0.003408,-1750.2073409526104
0.00341,-1742.0159025823796
0.003412,-1734.2347211625645
0.003414,-1726.8589990387245
0.003416,-1719.8832721737685
0.003418,-1713.301424120977
0.00342,-1707.1067009661951
0.003422,-1701.2917271840788
0.003424,-1695.8485223515752
0.003426,-1690.7685186607887
0.003428,-1686.042579172983
0.00343,-1681.6610167556607
0.003432,-1677.6136136453488
0.003434,-1673.8896415798647
0.003436,-1670.47788244533
0.003438,-1667.3666493849444
0.00344,-1664.5438083185093
0.003442,-1661.9967998237535
0.003444,-1659.7126613326661
0.003446,-1657.6780495981625
0.003448,-1655.8792633884834
0.00345,-1654.302266368676
0.003452,-1652.9327101303757
0.003454,-1651.7559573328942
0.003456,-1650.757104920344
0.003458,-1649.9210073812624
0.00346,-1649.2323000189224
0.003462,-1648.6754222023578
0.003464,-1648.2346405699923
0.003466,-1647.8940721598092
0.003468,-1647.6377074420755
0.00347,-1647.4494332327915
0.003472,-1647.313055468206
0.003474,-1647.2123218228548
0.003476,-1647.1309441556004
0.003478,-1647.052620770021
0.00348,-1646.9610584771617
0.003482,-1646.8399944500748
0.003484,-1646.6732178606876
0.003486,-1646.444591290344
0.003488,-1646.1380719057884
0.00349,-1645.7377323924266
0.003492,-1645.2277816363799
0.003494,-1644.5925851461884
0.003496,-1643.816685204022
0.003498,-1642.884820734963
0.0035,-1641.7819468813814
0.003502,-1640.4932542676454
0.003504,-1639.004187938516
0.003506,-1637.3004659525802
0.003508,-1635.368097610082
0.00351,-1633.1934012926101
0.003512,-1630.7630218903198
0.003514,-1628.063947790811
0.003516,-1625.0835274024632
0.003518,-1621.8094851839758
0.00352,-1618.2299371511438
0.003522,-1614.3334058314433
0.003524,-1610.1088346368804
0.003526,-1605.5456016256794
0.003528,-1600.6335326238177
0.00353,-1595.3629136781042
0.003532,-1589.7245028135164
0.003534,-1583.7095410687823
0.003536,-1577.3097627857521
0.003538,-1570.517405129956
0.00354,-1563.3252168218105
0.003542,-1555.7264660602652
0.003544,-1547.7149476231414
0.003546,-1539.2849891309866
0.003548,-1530.4314564638469
0.00355,-1521.1497583229004
0.003552,-1511.4358499312991
0.003554,-1501.2862358708223
0.003556,-1490.6979720529876
0.003558,-1479.6686668250945
0.00356,-1468.1964812133
0.003562,-1456.2801283062329
0.003564,-1443.9188717838651
0.003566,-1431.1125235973793
0.003568,-1417.8614408065755
0.00357,-1404.1665215820158
0.003572,-1390.0292003795805
0.003574,-1375.451442295536
0.003576,-1360.435736610561
0.003578,-1344.9850895315685
0.00358,-1329.103016140555
0.003582,-1312.793531560161
0.003584,-1296.0611413461354
0.003586,-1278.9108311174502
0.003588,-1261.3480554354105
0.00359,-1243.3787259436715
0.003592,-1225.0091987816468
0.003594,-1206.2462612842996
0.003596,-1187.097117981819
0.003598,-1167.5693759131957
0.0036,-1147.671029268255
0.003602,-1127.4104433733505
0.003604,-1106.796338036696
0.003606,-1085.8377702703265
0.003608,-1064.544116406965
0.00361,-1042.9250536316779
0.003612,-1020.9905409501303
0.003614,-998.7507996175017
0.003616,-976.2162930546449
0.003618,-953.397706280866
0.00362,-930.3059248956735
0.003622,-906.952013644938
0.003624,-883.3471946100559
0.003626,-859.5028250618496
0.003628,-835.4303750240737
0.00363,-811.14140459443
0.003632,-786.6475410739289
0.003634,-761.9604559581393
0.003636,-737.0918418463016
0.003638,-712.0533893263366
0.00364,-686.8567638954271
0.003642,-661.5135829769677
0.003644,-636.0353930952662
0.003646,-610.4336472693876
0.003648,-584.7196826870144
0.00365,-558.9046987182063
0.003652,-532.9997353275418
0.003654,-507.01565194140187
0.003656,-480.9631068251975
0.003658,-454.85253702320153
0.00366,-428.69413891139584
0.003662,-402.49784941140666
0.003664,-376.27332791120796
0.003666,-350.0299389358459
0.003668,-323.7767356089834
0.00367,-297.5224439435972
0.003672,-271.2754479977274
0.003674,-245.04377592880346
0.003676,-218.83508697779283
0.003678,-192.65665941225063
0.00368,-166.51537945529253
0.003682,-140.41773122554548
0.003684,-114.36978771121738
0.003686,-88.37720279950068
0.003688,-62.44520438050591
0.00369,-36.57858854273348
0.003692,-10.781714874672003
0.003694,14.941497115569456
0.003696,40.58757045363391
0.003698,66.15347201951617
0.0037,91.63661273300568
0.003702,117.03484660515758
0.003704,142.3464686606969
0.003706,167.57021174011547
0.003708,192.70524219421404
0.00371,217.7511544879801
0.003712,242.70796473496426
0.003714,267.5761031876906
0.003716,292.3564057140395
0.003718,317.05010429389455
0.00372,341.65881657454946
0.003722,366.18453452733746
0.003724,390.62961225155124
0.003726,414.99675297488125
0.003728,439.2889953022351
0.00373,463.50969876689504
0.003732,487.6625287395256
0.003734,511.7514407515666
0.003736,535.7806642900595
0.003738,559.7546861209769
0.00374,583.6782331976915
0.003742,607.5562552103654
0.003744,631.393906830783
0.003746,655.1965297055091
0.003748,678.9696342482541
0.00375,702.7188812800257
0.003752,726.4500635630937
0.003754,750.1690872720521
0.003756,773.8819534423881
0.003758,797.5947394340232
0.00376,821.3135804443456
0.003762,845.0446511023221
0.003764,868.7941471724027
0.003766,892.5682673941436
0.003768,916.3731954807621
0.00377,940.2150822972873
0.003772,964.1000282365386
0.003774,988.0340658089259
0.003776,1012.0231424600215
0.003778,1036.0731036280297
0.00378,1060.1896760516895
0.003782,1084.3784513377586
0.003784,1108.6448697960468
0.003786,1132.9942045489781
0.003788,1157.4315459218508
0.00379,1181.961786119357
0.003792,1206.5896041934766
0.003794,1231.319451307627
0.003796,1256.1555363019363
0.003798,1281.1018115647423
0.0038,1306.161959215908
0.003802,1331.3393776082792
0.003804,1356.637168154593
0.003806,1382.0581224883422
0.003808,1407.6047099685306
0.00381,1433.2790655398526
0.003812,1459.0829779615897
0.003814,1485.017878420367
0.003816,1511.084829543847
0.003818,1537.2845148343645
0.00382,1563.6172285433945
0.003822,1590.0828660094883
0.003824,1616.680914483864
0.003826,1643.410444469123
0.003828,1670.2701015975638
0.00383,1697.258099076226
0.003832,1724.3722107260994
0.003834,1751.6097646429203
0.003836,1778.9676375065894
0.003838,1806.442249565565
0.00384,1834.0295603215704
0.003842,1861.7250649386401
0.003844,1889.5237913989079
0.003846,1917.4202984256742
0.003848,1945.408674192169
0.00385,1973.482535832167
0.003852,2001.6350297662
0.003854,2029.8588328546687
0.003856,2058.1461543867426
0.003858,2086.4887389115606
0.00386,2114.8778699159925
0.003862,2143.304374351046
0.003864,2171.7586280069186
0.003866,2200.2305617346715
0.003868,2228.709668510524
0.00387,2257.185011336818
0.003872,2285.645231971798
0.003874,2314.0785604784583
0.003876,2342.4728255809196
0.003878,2370.8154658150656
0.00388,2399.0935414586697
0.003882,2427.293747224875
0.003884,2455.4024257018355
0.003886,2483.405581520425
0.003888,2511.288896231311
0.00389,2539.037743872243
0.003892,2566.637207206226
0.003894,2594.0720946111455
0.003896,2621.3269576015146
0.003898,2648.3861089631428
0.0039,2675.2336414817787
0.003902,2701.8534472470374
0.003904,2728.229237513131
0.003906,2754.3445630980273
0.003908,2780.1828353025226
0.00391,2805.727347330356
0.003912,2830.9612961898038
0.003914,2855.8678050561557
0.003916,2880.4299460730913
0.003918,2904.6307635692006
0.00392,2928.453297663863
0.003922,2951.880608234387
0.003924,2974.895799213799
0.003926,2997.4820431859866
0.003928,3019.6226062421356
0.00393,3041.3008730595234
0.003932,3062.500372160941
0.003934,3083.2048013102003
0.003936,3103.3980529965297
0.003938,3123.0642399581116
0.00394,3142.18772069277
0.003942,3160.753124901838
0.003944,3178.745378811568
0.003946,3196.14973031515
0.003948,3212.9517738773416
0.00395,3229.1374751430626
0.003952,3244.693195190904
0.003954,3259.60571437243
0.003956,3273.8622556783316
0.003958,3287.4505075730294
0.00396,3300.3586462401054
0.003962,3312.575357182109
0.003964,3324.0898561197373
0.003966,3334.8919091371245
0.003968,3344.9718520219767
0.00397,3354.320608751465
0.003972,3362.929709077188
0.003974,3370.7913051649725
0.003976,3377.898187247867
0.003978,3384.2437982532965
0.00398,3389.8222473680667
0.003982,3394.6283225076986
0.003984,3398.657501659443
0.003986,3401.9059630713646
0.003988,3404.3705942629754
0.00399,3406.0489998361304
0.003992,3406.9395080681447
0.003994,3407.041176272348
0.003996,3406.3537949145098
0.003998,3404.877890476632
0.004,3402.6147270626434
0.004002,3399.5663067434516
0.004004,3395.7353686416973
0.004006,3391.1253867593878
0.004008,3385.740566554445
0.00401,3379.5858402750914
0.004012,3372.666861063939
0.004014,3364.989995846679
0.004016,3356.5623170233107
0.004018,3347.3915929829736
0.00402,3337.4862774665903
0.004022,3326.8554978047323
0.004024,3315.5090420614024
0.004026,3303.457345117702
0.004028,3290.7114737326915
0.00403,3277.28311062213
0.004032,3263.1845375991074
0.004034,3248.4286178239245
0.004036,3233.0287772136885
0.004038,3216.998985064955
0.00404,3200.3537339452423
0.004042,3183.1080189112317
0.004044,3165.2773161128885
0.004046,3146.877560843525
0.004048,3127.925125095924
0.00405,3108.4367946841307
0.004052,3088.4297459893946
0.004054,3067.9215223871342
0.004056,3046.9300104096988
0.004058,3025.473415697187
0.00406,3003.5702387857705
0.004062,2981.2392507798118
0.004064,2958.4994689507253
0.004066,2935.3701323019222
0.004068,2911.870677135514
0.00407,2888.0207126526693
0.004072,2863.8399966158063
0.004074,2839.348411097194
0.004076,2814.56593833509
0.004078,2789.512636715377
0.00408,2764.208616893753
0.004082,2738.6740180709608
0.004084,2712.928984431358
0.004086,2686.9936417532494
0.004088,2660.888074197959
0.00409,2634.6323012835255
0.004092,2608.246255048257
0.004094,2581.749757409162
0.004096,2555.1624977204924
0.004098,2528.5040105382923
0.0041,2501.7936535978874
0.004102,2475.0505860126523
0.004104,2448.2937467040224
0.004106,2421.5418330745906
0.004108,2394.8132799380087
0.00411,2368.126238721369
0.004112,2341.498556957586
0.004114,2314.947758087027
0.004116,2288.491021589234
0.004118,2262.1451634669875
0.00412,2235.9266171061895
0.004122,2209.851414536154
0.004124,2183.9351681158573
0.004126,2158.193052672603
0.004128,2132.639788120414
0.00413,2107.2896225862814
0.004132,2082.156316073214
0.004134,2057.2531246898193
0.004136,2032.5927854769318
0.004138,2008.1875018624892
0.00414,1984.04892977647
0.004142,1960.1881644581463
0.004144,1936.615727988124
0.004146,1913.3415575776182
0.004148,1890.3749946470823
0.00415,1867.7247747256513
0.004152,1845.3990182018758
0.004154,1823.4052219548992
0.004156,1801.7502518935828
0.004158,1780.4403364291015
0.00416,1759.4810609042702
0.004162,1738.877363000268
0.004164,1718.6335291386306
0.004166,1698.7531918932923
0.004168,1679.2393284242191
0.00417,1660.0942599407826
0.004172,1641.3196521995808
0.004174,1622.9165170379924
0.004176,1604.8852149414195
0.004178,1587.2254586389822
0.00418,1569.9363177194202
0.004182,1553.016224256193
0.004184,1536.462979428281
0.004186,1520.273761121023
0.004188,1504.4451324894922
0.00419,1488.9730514653952
0.004192,1473.8528811872814
0.004194,1459.0794013329642
0.004196,1444.6468203324657
0.004198,1430.5487884394483
0.0042,1416.7784116389614
0.004202,1403.3282663693465
0.004204,1390.190415036236
0.004206,1377.3564222967282
0.004208,1364.8173720919017
0.00421,1352.5638854058334
0.004212,1340.5861387290859
0.004214,1328.8738832042256
0.004216,1317.416464430306
0.004218,1306.2028429024037
0.00422,1295.221615061253
0.004222,1284.4610349267825
0.004224,1273.909036287965
0.004226,1263.5532554198558
0.004228,1253.3810542970687
0.00423,1243.3795442711817
0.004232,1233.5356101776654
0.004234,1223.83593483587
0.004236,1214.2670239034137
0.004238,1204.8152310440164
0.00424,1195.4667833654687
0.004242,1186.207807082039
0.004244,1177.0243533532787
0.004246,1167.9024242489402
0.004248,1158.8279987876374
0.00425,1149.7870589949962
0.004252,1140.7656159253652
0.004254,1131.749735589701
0.004256,1122.7255647310735
0.004258,1113.6793563883464
0.00426,1104.597495188033
0.004262,1095.4665223040881
0.004264,1086.273160025531
0.004266,1077.0043358723208
0.004268,1067.647206200895
0.00427,1058.1891792421704
0.004272,1048.6179375166046
0.004274,1038.9214595730382
0.004276,1029.088041000479
0.004278,1019.1063146646097
0.00428,1008.9652701236241
0.004282,998.6542721809087
0.004284,988.1630785350781
0.004286,977.4818564909426
0.004288,966.6011986981015
0.00429,955.5121378870103
0.004292,944.2061605755486
0.004294,932.6752197222764
0.004296,920.9117463057107
0.004298,908.9086598120157
0.0043,896.6593776164718
0.004302,884.1578232469413
0.004304,871.3984335203013
0.004306,858.3761645455235
0.004308,845.0864965897943
0.00431,831.525437806828
0.004312,817.689526829377
0.004314,803.5758342308865
0.004316,789.1819628642787
0.004318,774.5060470889177
0.00432,759.5467508998745
0.004322,744.3032649765798
0.004324,728.7753026708289
0.004326,712.9630949568169
0.004328,696.8673843684701
0.00433,680.4894179517794
0.004332,663.8309392621824
0.004334,646.8941794392921
0.004336,629.6818473934727
0.004338,612.1971191409073
0.00434,594.4436263258781
0.004342,576.4254439709559
0.004344,558.1470774976361
0.004346,539.6134490616453
0.004348,520.8298832486207
0.00435,501.80209217712735
0.004352,482.53616005699575
0.004354,463.0385272517643
0.004356,443.31597389459273
0.004358,423.3756031073593
0.00436,403.22482387273794
0.004362,382.871333608809
0.004364,362.32310049514683
0.004366,341.58834559826767
0.004368,320.67552484277854
0.00437,299.593310872519
0.004372,278.35057484344975
0.004374,256.9563681870804
0.004376,235.4199043799047
0.004378,213.7505407507227
0.00438,191.95776035397557
0.004382,170.05115393341538
0.004384,148.04040199667332
0.004386,125.93525701764773
0.004388,103.74552578017224
0.00439,81.48105187320392
0.004392,59.15169834487716
0.004394,36.76733052027577
0.004396,14.33779898575144
0.004398,-8.127077258880393
0.0044,-30.617527479853248
0.004402,-53.12384572056721
0.004404,-75.63640714392359
0.004406,-98.14568420466436
0.004408,-120.64226264920349
0.00441,-143.11685733872906
0.004412,-165.5603278893086
0.004414,-187.96369412044191
0.004416,-210.31815130106938
0.004418,-232.61508517954584
0.00442,-254.8460867815943
0.004422,-277.0029669578273
0.004424,-299.0777706601395
0.004426,-321.0627909242106
0.004428,-342.9505825335712
0.00443,-364.73397533920155
0.004432,-386.40608720747247
0.004434,-407.9603365683776
0.004436,-429.39045453543633
0.004438,-450.69049656830424
0.00444,-471.8548536489617
0.004442,-492.8782629423175
0.004444,-513.7558179121639
0.004446,-534.4829778636631
0.004448,-555.0555768839516
0.00445,-575.4698321530162
0.004452,-595.7223515977216
0.004454,-615.810140862765
0.004456,-635.7306095733901
0.004458,-655.4815768658813
0.00446,-675.061276163125
0.004462,-694.4683591738516
0.004464,-713.7018990955356
0.004466,-732.7613930023564
0.004468,-751.6467634011291
0.00447,-770.3583589397249
0.004472,-788.896954254262
0.004474,-807.2637489433166
0.004476,-825.4603656596134
0.004478,-843.4888473121147
0.00448,-861.3516533741027
0.004482,-879.0516552957157
0.004484,-896.5921310223958
0.004486,-913.9767586238007
0.004488,-931.2096090408277
0.00449,-948.2951379614419
0.004492,-965.2381768389098
0.004494,-982.0439230688054
0.004496,-998.7179293437315
0.004498,-1015.2660922070216
0.0045,-1031.6946398286914
0.004502,-1048.010119028552
0.004504,-1064.219381572667
0.004506,-1080.3295697702129
0.004508,-1096.3481013983362
0.00451,-1112.2826539827977
0.004512,-1128.1411484621347
0.004514,-1143.9317322628308
0.004516,-1159.662761812613
0.004518,-1175.3427845185925
0.00452,-1190.9805202365383
0.004522,-1206.584842257196
0.004524,-1222.1647578352672
0.004526,-1237.729388286499
0.004528,-1253.2879486783468
0.00453,-1268.8497271399497
0.004532,-1284.4240638177366
0.004534,-1300.0203295039444
0.004536,-1315.6479039666915
0.004538,-1331.31615401202
0.00454,-1347.0344113104713
0.004542,-1362.8119500232335
0.004544,-1378.6579642655786
0.004546,-1394.5815454481353
0.004548,-1410.591659539351
0.00455,-1426.6971242952382
0.004552,-1442.906586505056
0.004554,-1459.2284993038902
0.004556,-1475.6710996050738
0.004558,-1492.2423857070098
0.00456,-1508.950095130155
0.004562,-1525.801682740715
0.004564,-1542.8042992179269
0.004566,-1559.9647699216966
0.004568,-1577.2895742168005
0.00457,-1594.7848253089355
0.004572,-1612.4562506466245
0.004574,-1630.3091729414373
0.004576,-1648.3484918572503
0.004578,-1666.578666417385
0.00458,-1685.0036981764877
0.004582,-1703.627115202021
0.004584,-1722.4519569081538
0.004586,-1741.4807597827066
0.004588,-1760.715544045615
0.00459,-1780.1578012750601
0.004592,-1799.808483035
0.004594,-1819.667990535248
0.004596,-1839.7361653524977
0.004598,-1860.0122812377574
0.0046,-1880.4950370325923
0.004602,-1901.182550713371
0.004604,-1922.0723545793655
0.004606,-1943.1613915970856
0.004608,-1964.4460129096253
0.00461,-1985.9219765161204
0.004612,-2007.5844471227078
0.004614,-2029.4279971626802
0.004616,-2051.4466089799234
0.004618,-2073.6336781662812
0.00462,-2095.9820180402694
0.004622,-2118.4838652516423
0.004624,-2141.1308864936864
0.004626,-2163.9141863027785
0.004628,-2186.824315922659
0.00463,-2209.8512832089914
0.004632,-2232.9845635480747
0.004634,-2256.2131117619588
0.004636,-2279.525374970638
0.004638,-2302.909306380461
0.00464,-2326.352379966383
0.004642,-2349.841606014203
0.004644,-2373.363547487529
0.004646,-2396.9043371828234
0.004648,-2420.449695634553
0.00465,-2443.984949731163
0.004652,-2467.495052001311
0.004654,-2490.9646005284776
0.004656,-2514.377859450754
0.004658,-2537.7187800012066
0.00466,-2560.9710220429492
0.004662,-2584.117976051822
0.004664,-2607.1427854986337
0.004666,-2630.0283695821604
0.004668,-2652.7574462637785
0.00467,-2675.3125555545907
0.004672,-2697.676083006402
0.004674,-2719.830283358712
0.004676,-2741.7573042951267
0.004678,-2763.4392102641254
0.00468,-2784.8580063210125
0.004682,-2805.9956619500354
0.004684,-2826.8341348281497
0.004686,-2847.3553944946443
0.004688,-2867.541445893858
0.00469,-2887.3743527614956
0.004692,-2906.836260828478
0.004694,-2925.909420819853
0.004696,-2944.576211229817
0.004698,-2962.819160857343
0.0047,-2980.62097109011
0.004702,-2997.964537927276
0.004704,-3014.8329737340537
0.004706,-3031.209628722895
0.004708,-3047.0781121573814
0.00471,-3062.4223132755315
0.004712,-3077.22642192924
0.004714,-3091.4749489359215
0.004716,-3105.1527461372184
0.004718,-3118.245026157984
0.00472,-3130.737381856622
0.004722,-3142.6158054555426
0.004724,-3153.866707337895
0.004726,-3164.476934494098
0.004728,-3174.433788599027
0.00473,-3183.7250436981517
0.004732,-3192.3389634784517
0.004734,-3200.264318097737
0.004736,-3207.490400543951
0.004738,-3214.0070424943324
0.00474,-3219.8046296428683
0.004742,-3224.8741164633866
0.004744,-3229.20704037487
0.004746,-3232.795535275214
0.004748,-3235.632344409632
0.00475,-3237.710832540316
0.004752,-3239.024997384691
0.004754,-3239.569480290665
0.004756,-3239.3395761186025
0.004758,-3238.3312423012935
0.00476,-3236.5411070549144
0.004762,-3233.9664767157365
0.004764,-3230.6053421791876
0.004766,-3226.4563844197
0.004768,-3221.5189790715604
0.00477,-3215.7932000527867
0.004772,-3209.279822215769
0.004774,-3201.9803230101556
0.004776,-3193.8968831452016
0.004778,-3185.0323862405876
0.00478,-3175.3904174565782
0.004782,-3164.9752610963974
0.004784,-3153.791897175806
0.004786,-3141.845996957217
0.004788,-3129.1439174481475
0.00479,-3115.6926948664795
0.004792,-3101.500037077826
0.004794,-3086.574315013207
0.004796,-3070.924553078269
0.004798,-3054.560418568309
0.0048,-3037.492210106338
0.004802,-3019.730845124255
0.004804,-3001.287846409862
0.004806,-2982.1753277447547
0.004808,-2962.4059786601792
0.00481,-2941.9930483395115
0.004812,-2920.950328697185
0.004814,-2899.292136664652
0.004816,-2877.0332957142887
0.004818,-2854.18911665219
0.00482,-2830.775377710574
0.004822,-2806.808303970126
0.004824,-2782.304546142122
0.004826,-2757.281158739685
0.004828,-2731.755577667093
0.00483,-2705.74559725573
0.004832,-2679.2693467751005
0.004834,-2652.345266447371
0.004836,-2624.9920829941047
0.004838,-2597.228784744359
0.00484,-2569.0745963340155
0.004842,-2540.548953027225
0.004844,-2511.6714746920634
0.004846,-2482.461939464003
0.004848,-2452.9402571324504
0.00485,-2423.1264422874942
0.004852,-2393.0405872659626
0.004854,-2362.702834937948
0.004856,-2332.1333513770346
0.004858,-2301.352298459493
0.00486,-2270.3798064396588
0.004862,-2239.2359465505615
0.004864,-2207.940703680528
0.004866,-2176.5139491779923
0.004868,-2144.975413838064
0.00487,-2113.3446611254744
0.004872,-2081.6410606894538
0.004874,-2049.883762226742
0.004876,-2018.0916697493697
0.004878,-1986.2834163140105
0.00488,-1954.477339269574
0.004882,-1922.691456079271
0.004884,-1890.9434407725603
0.004886,-1859.2506010812428
0.004888,-1827.6298563123773
0.00489,-1796.0977160087987
0.004892,-1764.6702594457488
0.004894,-1733.3631160095538
0.004896,-1702.191446501435
0.004898,-1671.1699254064802
0.0049,-1640.3127241645757
0.004902,-1609.6334954767538
0.004904,-1579.145358676939
0.004906,-1548.8608861955163
0.004908,-1518.7920911374954
0.00491,-1488.9504159943247
0.004912,-1459.3467225046516
0.004914,-1429.9912826755206
0.004916,-1400.8937709717106
0.004918,-1372.063257677183
0.00492,-1343.5082034290044
0.004922,-1315.2364549206693
0.004924,-1287.2552417684815
0.004926,-1259.5711745316073
0.004928,-1232.1902438735608
0.00493,-1205.117820850231
0.004932,-1178.358658307053
0.004934,-1151.916893365538
0.004936,-1125.7960509770983
0.004938,-1099.9990485199307
0.00494,-1074.5282014126788
0.004942,-1049.3852297166804
0.004944,-1024.5712656968424
0.004946,-1000.0868623095888
0.004948,-975.9320025849497
0.00495,-952.106109868642
0.004952,-928.6080588889697
0.004954,-905.4361876124456
0.004956,-882.5883098512181
0.004958,-860.0617285846167
0.00496,-837.8532499563768
0.004962,-815.9591979083503
0.004964,-794.3754294107354
0.004966,-773.0973502481164
0.004968,-752.1199313199411
0.00497,-731.4377254135098
0.004972,-711.0448844071601
0.004974,-690.9351768611191
0.004976,-671.1020059535012
0.004978,-651.538427719143
0.00498,-632.2371695494182
0.004982,-613.1906489118605
0.004984,-594.3909922493664
0.004986,-575.8300540199918
0.004988,-557.4994358399139
0.00499,-539.3905056940121
0.004992,-521.4944171807322
0.004994,-503.8021287603981
0.004996,-486.30442297890545
0.004998,-468.99192564171
0.005,-451.8551249161156
0.005002,-434.8843903429816
