Time,Force
0.0,-4570.920259654469
2e-06,-4455.78475923198
4e-06,-4339.330643029532
6e-06,-4221.583151875056
8e-06,-4102.568246600499
1e-05,-3982.3125367347243
1.2e-05,-3860.8432111044835
1.4e-05,-3738.1879704212624
1.6e-05,-3614.374961929368
1.8e-05,-3489.4327161877086
2e-05,-3363.39008605413
2.2e-05,-3236.2761879367195
2.4e-05,-3108.1203453710123
2.6e-05,-2978.9520349754284
2.8e-05,-2848.8008348296094
3e-05,-2717.6963753115774
3.2e-05,-2585.6682924200963
3.4e-05,-2452.7461835984595
3.6e-05,-2318.95956606545
3.8e-05,-2184.3378376486407
4e-05,-2048.910240104739
4.2e-05,-1912.7058249016018
4.4e-05,-1775.7534214269665
4.6e-05,-1638.0816075800087
4.8e-05,-1499.7186826936613
5e-05,-1360.69264272834
5.2e-05,-1221.031157671507
5.4e-05,-1080.7615510725916
5.6e-05,-939.9107816393063
5.8e-05,-798.505426819428
6e-05,-656.5716682916753
6.2e-05,-514.1352792903517
6.4e-05,-371.221613690799
6.6e-05,-227.85559678619117
6.8e-05,-84.06171769041849
7e-05,60.135976693553516
7.2e-05,204.713886195715
7.4e-05,349.6488604426702
7.6e-05,494.9182005098866
7.8e-05,640.4996592057914
8e-05,786.371440027992
8.2e-05,932.5121948297165
8.4e-05,1078.9010202332518
8.6e-05,1225.5174528267407
8.8e-05,1372.3414631813012
9e-05,1519.3534487270304
9.2e-05,1666.534225529036
9.4e-05,1813.8650190079668
9.6e-05,1961.3274536534768
9.8e-05,2108.903541783318
0.0001,2256.5756714051117
0.000102,2404.326593241912
0.000104,2552.1394069861603
0.000106,2699.997546849346
0.000108,2847.8847664764658
0.00011,2995.7851232952216
0.000112,3143.68296236972
0.000114,3291.5628998273355
0.000116,3439.4098059254
0.000118,3587.2087878215416
0.00012,3734.9451721080336
0.000122,3882.604487166428
0.000124,4030.1724453942006
0.000126,4177.634925350365
0.000128,4324.977953862118
0.00013,4472.1876881298695
0.000132,4619.250397863686
0.000134,4766.152447480449
0.000136,4912.8802783880565
0.000138,5059.420391380953
0.00014,5205.7593291702415
0.000142,5351.8836590714745
0.000144,5497.77995587403
0.000146,5643.43478491751
0.000148,5788.834685402822
0.00015,5933.966153968355
0.000152,6078.815628564714
0.000154,6223.36947266473
0.000156,6367.613959848626
0.000158,6511.535258807114
0.00016,6655.119418807686
0.000162,6798.352355671002
0.000164,6941.219838305133
0.000166,7083.707475845122
0.000168,7225.800705443989
0.00017,7367.484780758828
0.000172,7508.744761172302
0.000174,7649.5655017856425
0.000176,7789.93164421463
0.000178,7929.827608215093
0.00018,8069.237584159542
0.000182,8208.145526381872
0.000184,8346.535147402707
0.000186,8484.3899130443
0.000188,8621.69303844076
0.00019,8758.427484947073
0.000192,8894.57595794872
0.000194,9030.120905573072
0.000196,9165.0445183037
0.000198,9299.328729499814
0.0002,9432.955216824488
0.000202,9565.905404587627
0.000204,9698.160467012061
0.000206,9829.701332433895
0.000208,9960.508688450656
0.00021,10090.562988032782
0.000212,10219.844456615265
0.000214,10348.33310018662
0.000216,10476.008714391803
0.000218,10602.85089466411
0.00022,10728.839047398616
0.000222,10853.952402176155
0.000224,10978.170025042815
0.000226,11101.470832845083
0.000228,11223.833608615772
0.00023,11345.237018000487
0.000232,11465.659626709183
0.000234,11585.07991897223
0.000236,11703.476316975857
0.000238,11820.827201247821
0.00024,11937.110931960759
0.000242,12052.305871118204
0.000244,12166.390405586351
0.000246,12279.342970933516
0.000248,12391.142076038694
0.00025,12501.766328430333
0.000252,12611.194460316565
0.000254,12719.405355268049
0.000256,12826.378075514707
0.000258,12932.091889817299
0.00026,13036.52630187429
0.000262,13139.661079223624
0.000264,13241.476282597438
0.000266,13341.95229568605
0.000268,13441.069855264857
0.00027,13538.810081634796
0.000272,13635.154509323209
0.000274,13730.085117987735
0.000276,13823.58436346097
0.000278,13915.63520886869
0.00028,14006.221155749108
0.000282,14095.3262750953
0.000284,14182.935238238033
0.000286,14269.033347481454
0.000288,14353.606566400143
0.00029,14436.641549702643
0.000292,14518.12567256408
0.000294,14598.047059328763
0.000296,14676.394611482923
0.000298,14753.158034797805
0.0003,14828.327865544336
0.000302,14901.89549568239
0.000304,14973.853196930235
0.000306,15044.194143622948
0.000308,15112.912434272439
0.00031,15180.003111746135
0.000312,15245.46218198603
0.000314,15309.286631195066
0.000316,15371.474441423281
0.000318,15432.024604491824
0.00032,15490.937134199137
0.000322,15548.213076759834
0.000324,15603.854519433416
0.000326,15657.864597307062
0.000328,15710.247498203893
0.00033,15761.008465695886
0.000332,15810.153800208578
0.000334,15857.690858212927
0.000336,15903.628049508303
0.000338,15947.974832609158
0.00034,15990.74170825668
0.000342,16031.940211085284
0.000344,16071.582899482097
0.000346,16109.683343685558
0.000348,16146.2561121765
0.00035,16181.316756421744
0.000352,16214.88179403591
0.000354,16246.968690431891
0.000356,16277.595839034035
0.000358,16306.782540130484
0.00036,16334.548978442439
0.000362,16360.916199488172
0.000364,16385.906084818656
0.000366,16409.541326199815
0.000368,16431.845398813784
0.00037,16452.84253354834
0.000372,16472.55768844017
0.000374,16491.016519334073
0.000376,16508.24534981653
0.000378,16524.271140478897
0.00038,16539.121457562516
0.000382,16552.824441035595
0.000384,16565.40877214975
0.000386,16576.90364052265
0.000388,16587.338710792206
0.00039,16596.744088887037
0.000392,16605.15028795797
0.000394,16612.588194015243
0.000396,16619.08903131655
0.000398,16624.684327551757
0.0004,16629.40587887064
0.000402,16633.285714800888
0.000404,16636.35606310411
0.000406,16638.64931461802
0.000408,16640.197988133255
0.00041,16641.03469535301
0.000412,16641.19210598326
0.000414,16640.702913000714
0.000416,16639.599798144587
0.000418,16637.915397677196
0.00042,16635.68226845719
0.000422,16632.932854367988
0.000424,16629.699453142624
0.000426,16626.01418362497
0.000428,16621.908953505997
0.00043,16617.415427572294
0.000432,16612.564996502893
0.000434,16607.38874624897
0.000436,16601.91742802977
0.000438,16596.18142897692
0.00044,16590.210743458163
0.000442,16584.034945110554
0.000444,16577.683159612403
0.000446,16571.18403822222
0.000448,16564.565732112296
0.00045,16557.855867523424
0.000452,16551.081521766457
0.000454,16544.269200094972
0.000456,16537.444813471957
0.000458,16530.633657251805
0.00046,16523.860390797177
0.000462,16517.149018048367
0.000464,16510.522869060915
0.000466,16504.004582525296
0.000468,16497.61608928044
0.00047,16491.378596831124
0.000472,16485.312574877193
0.000474,16479.43774186095
0.000476,16473.773052537294
0.000478,16468.33668656954
0.00048,16463.146038152798
0.000482,16458.217706665633
0.000484,16453.567488350116
0.000486,16449.210369020086
0.000488,16445.160517797358
0.00049,16441.43128187578
0.000492,16438.03518231336
0.000494,16434.983910853036
0.000496,16432.28832777272
0.000498,16429.95846076524
0.0005,16428.003504848653
0.000502,16426.43182330673
0.000504,16425.250949658584
0.000506,16424.467590655266
0.000508,16424.087630299688
0.00051,16424.116134884523
0.000512,16424.557359041002
0.000514,16425.414752789457
0.000516,16426.69096958049
0.000518,16428.387875313645
0.00052,16430.506558318706
0.000522,16433.047340283098
0.000524,16436.009788107684
0.000526,16439.3927266722
0.000528,16443.194252491092
0.00053,16447.411748240316
0.000532,16452.04189813589
0.000534,16457.08070414534
0.000536,16462.523503014123
0.000538,16468.36498408973
0.00054,16474.599207927295
0.000542,16481.219625661266
0.000544,16488.219099128295
0.000546,16495.589921726605
0.000548,16503.323839996985
0.00055,16511.412075909808
0.000552,16519.84534984098
0.000554,16528.613904217902
0.000556,16537.707527814026
0.000558,16547.115580667476
0.00056,16556.827019596127
0.000562,16566.83042427797
0.000564,16577.114023861996
0.000566,16587.665724071405
0.000568,16598.473134757507
0.00057,16609.52359785984
0.000572,16620.804215725184
0.000574,16632.301879735784
0.000576,16644.003299195054
0.000578,16655.895030417105
0.00058,16667.96350596497
0.000582,16680.19506398104
0.000584,16692.57597755198
0.000586,16705.092484049317
0.000588,16717.730814385737
0.00059,16730.477222126166
0.000592,16743.31801239162
0.000594,16756.23957049253
0.000596,16769.22839022703
0.000598,16782.271101778228
0.0006,16795.35449914289
0.000602,16808.46556702256
0.000604,16821.591507106426
0.000606,16834.719763674093
0.000608,16847.838048445108
0.00061,16860.9343646016
0.000612,16873.99702991011
0.000614,16887.01469886933
0.000616,16899.976383811394
0.000618,16912.87147488658
0.00062,16925.689758863653
0.000622,16938.421436681794
0.000624,16951.057139694072
0.000626,16963.58794454769
0.000628,16976.005386651777
0.00063,16988.301472190247
0.000632,17000.468688644225
0.000634,17012.500013796354
0.000636,17024.38892319774
0.000638,17036.129396086548
0.00064,17047.71591975646
0.000642,17059.14349238195
0.000644,17070.40762431608
0.000646,17081.504337885224
0.000648,17092.430165713075
0.00065,17103.182147614036
0.000652,17113.757826102807
0.000654,17124.15524057325
0.000656,17134.372920204834
0.000658,17144.409875659345
0.00066,17154.26558963389
0.000662,17163.940006338406
0.000664,17173.43351996719
0.000666,17182.74696223427
0.000668,17191.88158904168
0.00067,17200.839066348533
0.000672,17209.62145530652
0.000674,17218.23119672516
0.000676,17226.671094927224
0.000678,17234.94430105158
0.00068,17243.054295857542
0.000682,17251.00487208121
0.000684,17258.800116390918
0.000686,17266.444390985525
0.000688,17273.942314876003
0.00069,17281.298744887936
0.000692,17288.51875641988
0.000694,17295.607623990407
0.000696,17302.570801604983
0.000698,17309.41390297263
0.0007,17316.14268160166
0.000702,17322.763010803286
0.000704,17329.280863631888
0.000706,17335.702292790902
0.000708,17342.033410533644
0.00071,17348.280368588847
0.000712,17354.449338141243
0.000714,17360.54648989809
0.000716,17366.57797427312
0.000718,17372.549901719776
0.00072,17378.46832324597
0.000722,17384.33921114248
0.000724,17390.16843995676
0.000726,17395.961767743247
0.000728,17401.724817620117
0.00073,17407.463059661382
0.000732,17413.181793151518
0.000734,17418.886129228733
0.000736,17424.580973941353
0.000738,17430.27101174092
0.00074,17435.96068943457
0.000742,17441.654200618585
0.000744,17447.355470614413
0.000746,17453.068141928037
0.000748,17458.79556025311
0.00075,17464.54076103775
0.000752,17470.30645663444
0.000754,17476.09502405164
0.000756,17481.90849332508
0.000758,17487.74853652579
0.00076,17493.616457421114
0.000762,17499.513181803944
0.000764,17505.43924850449
0.000766,17511.394801097937
0.000768,17517.379580320085
0.00077,17523.39291720192
0.000772,17529.433726932675
0.000774,17535.500503459225
0.000776,17541.591314828198
0.000778,17547.70379927535
0.00078,17553.835162065378
0.000782,17559.98217308378
0.000784,17566.141165181376
0.000786,17572.308033271158
0.000788,17578.478234176662
0.00079,17584.646787230882
0.000792,17590.808275624775
0.000794,17596.956848504695
0.000796,17603.086223818478
0.000798,17609.189691910586
0.0008,17615.260119867173
0.000802,17621.28995661277
0.000804,17627.271238760728
0.000806,17633.19559722021
0.000808,17639.054264562863
0.00081,17644.838083152554
0.000812,17650.53751404134
0.000814,17656.142646634496
0.000816,17661.64320912628
0.000818,17667.02857970713
0.00082,17672.287798541107
0.000822,17677.40958051036
0.000824,17682.382328721273
0.000826,17687.194148764316
0.000828,17691.832863717194
0.00083,17696.28602987841
0.000832,17700.54095321602
0.000834,17704.584706514506
0.000836,17708.404147200894
0.000838,17711.985935830286
0.00084,17715.316555210127
0.000842,17718.382330142245
0.000844,17721.169447761855
0.000846,17723.663978452885
0.000848,17725.851897319422
0.00085,17727.71910619333
0.000852,17729.251456158243
0.000854,17730.434770569926
0.000856,17731.25486855242
0.000858,17731.697588948336
0.00086,17731.748814700473
0.000862,17731.394497639925
0.000864,17730.62068365403
0.000866,17729.413538205048
0.000868,17727.759372168082
0.00087,17725.64466795381
0.000872,17723.05610587895
0.000874,17719.98059074404
0.000876,17716.40527857506
0.000878,17712.317603481893
0.00088,17707.705304583134
0.000882,17702.556452943358
0.000884,17696.859478465492
0.000886,17690.60319667795
0.000888,17683.776835353343
0.00089,17676.37006089339
0.000892,17668.373004412737
0.000894,17659.776287453144
0.000896,17650.571047258683
0.000898,17640.74896154202
0.0009,17630.302272671877
0.000902,17619.2238112118
0.000904,17607.50701874073
0.000906,17595.145969886347
0.000908,17582.135393502816
0.00091,17568.470692925264
0.000912,17554.1479652343
0.000914,17539.164019464726
0.000916,17523.51639369385
0.000918,17507.203370945794
0.00092,17490.223993849726
0.000922,17472.578077991224
0.000924,17454.266223897783
0.000926,17435.289827601395
0.000928,17415.651089723622
0.00093,17395.353023031454
0.000932,17374.399458415923
0.000934,17352.79504924976
0.000936,17330.54527408536
0.000938,17307.65643766018
0.00094,17284.13567018307
0.000942,17259.99092488227
0.000944,17235.230973803278
0.000946,17209.86540185319
0.000948,17183.9045990965
0.00095,17157.359751316366
0.000952,17130.24282886434
0.000954,17102.566573830747
0.000956,17074.34448557691
0.000958,17045.590804678905
0.00096,17016.320495340693
0.000962,16986.549226341584
0.000964,16956.293350589152
0.000966,16925.56988335394
0.000968,16894.39647926586
0.00097,16862.791408154986
0.000972,16830.77352982059
0.000974,16798.36226781285
0.000976,16765.5775823108
0.000978,16732.439942178862
0.00098,16698.970296281957
0.000982,16665.190044136874
0.000984,16631.121005974182
0.000986,16596.785392282072
0.000988,16562.20577289988
0.00099,16527.40504572604
0.000992,16492.406405101967
0.000994,16457.233309930736
0.000996,16421.9094515868
0.000998,16386.458721670864
0.001,16350.905179662026
0.001002,16315.273020517483
0.001004,16279.586542268296
0.001006,16243.870113657891
0.001008,16208.148141867956
0.00101,16172.445040374261
0.001012,16136.78519697295
0.001014,16101.192942015643
0.001016,16065.69251689001
0.001018,16030.30804278082
0.00102,15995.06348974545
0.001022,15959.982646137056
0.001024,15925.089088408471
0.001026,15890.406151329573
0.001028,15855.956898651302
0.00103,15821.76409424956
0.001032,15787.850173782574
0.001034,15754.23721689566
0.001036,15720.946920007424
0.001038,15688.00056971167
0.00104,15655.419016829435
0.001042,15623.222651145526
0.001044,15591.431376863875
0.001046,15560.064588815589
0.001048,15529.141149452767
0.00105,15498.679366659953
0.001052,15468.696972413196
0.001054,15439.211102314473
0.001056,15410.238276026234
0.001058,15381.794378627726
0.00106,15353.894642911166
0.001062,15326.55363263234
0.001064,15299.785226726732
0.001066,15273.602604499007
0.001068,15248.0182317907
0.00107,15223.043848128333
0.001072,15198.690454851936
0.001074,15174.96830422206
0.001076,15151.886889502037
0.001078,15129.454936011154
0.00108,15107.680393143935
0.001082,15086.570427350649
0.001084,15066.131416074479
0.001086,15046.368942641604
0.001088,15027.2877921014
0.00109,15008.891948015009
0.001092,14991.184590191513
0.001094,14974.168093371565
0.001096,14957.844026858858
0.001098,14942.213155099565
0.0011,14927.275439209649
0.001102,14913.030039449024
0.001104,14899.4753186406
0.001106,14886.608846531175
0.001108,14874.42740508995
0.00111,14862.926994739359
0.001112,14852.10284151179
0.001114,14841.94940512479
0.001116,14832.460387966432
0.001118,14823.628744981823
0.00112,14815.446694450937
0.001122,14807.905729647633
0.001124,14800.996631369222
0.001126,14794.70948132596
0.001128,14789.03367637984
0.00113,14783.957943622368
0.001132,14779.470356281146
0.001134,14775.558350445537
0.001136,14772.208742601797
0.001138,14769.40774796821
0.00114,14767.140999620571
0.001142,14765.393568398078
0.001144,14764.14998357901
0.001146,14763.394254314866
0.001148,14763.109891810509
0.00115,14763.279932236517
0.001152,14763.886960358564
0.001154,14764.913133866781
0.001156,14766.340208386235
0.001158,14768.149563147368
0.00116,14770.322227293222
0.001162,14772.838906797728
0.001164,14775.680011967223
0.001166,14778.825685495136
0.001168,14782.25583103786
0.00117,14785.950142278023
0.001172,14789.888132439923
0.001174,14794.049164220674
0.001176,14798.41248009941
0.001178,14802.957232986111
0.00118,14807.662517170402
0.001182,14812.507399529684
0.001184,14817.470950954626
0.001186,14822.532277948465
0.001188,14827.670554354925
0.00119,14832.865053167417
0.001192,14838.095178369962
0.001194,14843.340496757737
0.001196,14848.580769682516
0.001198,14853.795984665445
0.0012,14858.96638681674
0.001202,14864.072509998985
0.001204,14869.095207667826
0.001206,14874.015683321302
0.001208,14878.815520486702
0.00121,14883.476712171967
0.001212,14887.98168970709
0.001214,14892.313350900138
0.001216,14896.45508743217
0.001218,14900.390811415717
0.00122,14904.10498104236
0.001222,14907.582625246447
0.001224,14910.809367313983
0.001226,14913.77144736828
0.001228,14916.455743666864
0.00123,14918.849792647648
0.001232,14920.941807666146
0.001234,14922.720696369726
0.001236,14924.17607665968
0.001238,14925.298291196626
0.00124,14926.078420410084
0.001242,14926.508293978231
0.001244,14926.580500749333
0.001246,14926.28839708184
0.001248,14925.626113585611
0.00125,14924.588560252218
0.001252,14923.171429967815
0.001254,14921.37120040764
0.001256,14919.18513431689
0.001258,14916.611278188733
0.00126,14913.648459356169
0.001262,14910.29628152054
0.001264,14906.55511874572
0.001266,14902.426107953113
0.001268,14897.91113995832
0.00127,14893.012849096258
0.001272,14887.734601486485
0.001274,14882.080481995637
0.001276,14876.055279958235
0.001278,14869.664473721055
0.00128,14862.914214079801
0.001282,14855.811306679367
0.001284,14848.363193451336
0.001286,14840.577933163482
0.001288,14832.464181156713
0.00129,14824.03116834457
0.001292,14815.288679549294
0.001294,14806.247031246612
0.001296,14796.91704878879
0.001298,14787.310043172196
0.0013,14777.437787411673
0.001302,14767.3124925796
0.001304,14756.946783562706
0.001306,14746.353674584563
0.001308,14735.546544536399
0.00131,14724.53911215373
0.001312,14713.345411071266
0.001314,14701.979764784146
0.001316,14690.456761539572
0.001318,14678.791229179735
0.00132,14666.99820995457
0.001322,14655.09293532133
0.001324,14643.090800747459
0.001326,14631.007340533291
0.001328,14618.858202672043
0.00133,14606.659123765987
0.001332,14594.425904019485
0.001334,14582.174382331916
0.001336,14569.920411515986
0.001338,14557.679833669672
0.00134,14545.468455732771
0.001342,14533.30202526195
0.001344,14521.196206460594
0.001346,14509.166556502241
0.001348,14497.22850218784
0.00135,14485.397316978302
0.001352,14473.688098443901
0.001354,14462.115746171528
0.001356,14450.694940169451
0.001358,14439.440119807094
0.00136,14428.365463324937
0.001362,14417.484867946481
0.001364,14406.811930621345
0.001366,14396.359929425264
0.001368,14386.14180563966
0.00137,14376.1701465303
0.001372,14366.457168841596
0.001374,14357.0147030202
0.001376,14347.85417817887
0.001378,14338.986607809094
0.00138,14330.422576248922
0.001382,14322.172225910756
0.001384,14314.245245272941
0.001386,14306.650857638517
0.001388,14299.39781066465
0.00139,14292.49436666685
0.001392,14285.948293703012
0.001394,14279.766857443228
0.001396,14273.956813832305
0.001398,14268.524402552383
0.0014,14263.475341293386
0.001402,14258.814820838725
0.001404,14254.547500973202
0.001406,14250.67750721927
0.001408,14247.208428406664
0.00141,14244.143315079504
0.001412,14241.484678743665
0.001414,14239.234491956258
0.001416,14237.394189257979
0.001418,14235.964668947896
0.00142,14234.946295699316
0.001422,14234.338904014041
0.001424,14234.141802511296
0.001426,14234.35377904642
0.001428,14234.9731066532
0.00143,14235.997550302747
0.001432,14237.424374470751
0.001434,14239.250351504215
0.001436,14241.471770778153
0.001438,14244.084448632242
0.00144,14247.083739077232
0.001442,14250.464545260847
0.001444,14254.221331682938
0.001446,14258.348137149767
0.001448,14262.838588457336
0.00145,14267.685914793607
0.001452,14272.882962849191
0.001454,14278.422212625583
0.001456,14284.295793929257
0.001458,14290.495503538838
0.00146,14297.012823030995
0.001462,14303.838937249127
0.001464,14310.96475339663
0.001466,14318.380920734437
0.001468,14326.077850859776
0.00147,14334.045738540426
0.001472,14342.27458307573
0.001474,14350.754210152627
0.001476,14359.474294162035
0.001478,14368.424380937928
0.00148,14377.593910878784
0.001482,14386.972242408667
0.001484,14396.548675733262
0.001486,14406.31247684479
0.001488,14416.252901728687
0.00149,14426.359220724402
0.001492,14436.620742992396
0.001494,14447.02684103933
0.001496,14457.566975253203
0.001498,14468.230718399913
0.0015,14479.007780031803
0.001502,14489.888030757658
0.001504,14500.861526322025
0.001506,14511.918531439735
0.001508,14523.049543329247
0.00151,14534.245314886026
0.001512,14545.496877434687
0.001514,14556.795562996249
0.001516,14568.133026004774
0.001518,14579.501264405699
0.00152,14590.892640066744
0.001522,14602.299898431344
0.001524,14613.716187343969
0.001526,14625.135074977037
0.001528,14636.550566789901
0.00153,14647.957121452078
0.001532,14659.349665665377
0.001534,14670.723607822969
0.001536,14682.074850447563
0.001538,14693.399801355807
0.00154,14704.695383501732
0.001542,14715.959043458006
0.001544,14727.188758500508
0.001546,14738.383042268502
0.001548,14749.54094897953
0.00155,14760.662076185135
0.001552,14771.746566060263
0.001554,14782.79510522564
0.001556,14793.808923108698
0.001558,14804.78978885453
0.00156,14815.740006803788
0.001562,14826.662410559811
0.001564,14837.560355672136
0.001566,14848.437710968374
0.001568,14859.298848570896
0.00157,14870.148632639319
0.001572,14880.992406883879
0.001574,14891.835980899094
0.001576,14902.685615370843
0.001578,14913.548006213912
0.00158,14924.430267700445
0.001582,14935.339914643024
0.001584,14946.284843699032
0.001586,14957.27331386556
0.001588,14968.313926236444
0.00159,14979.415603094947
0.001592,14990.587566417185
0.001594,15001.839315862373
0.001596,15013.18060632662
0.001598,15024.621425136822
0.0016,15036.171968960402
0.001602,15047.842620504916
0.001604,15059.643925079044
0.001606,15071.586567082897
0.001608,15083.681346491341
0.00161,15095.93915538905
0.001612,15108.370954610327
0.001614,15120.987750530867
0.001616,15133.80057205232
0.001618,15146.820447814456
0.00162,15160.058383663514
0.001622,15173.5253403997
0.001624,15187.232211821309
0.001626,15201.189803078354
0.001628,15215.408809344408
0.00163,15229.899794812278
0.001632,15244.673172016577
0.001634,15259.739181484932
0.001636,15275.107871718823
0.001638,15290.789079505517
0.00164,15306.792410563628
0.001642,15323.127220526887
0.001644,15339.802596273114
0.001646,15356.827337608476
0.001648,15374.209939320184
0.00165,15391.958573614033
0.001652,15410.081072956145
0.001654,15428.58491334104
0.001656,15447.477198010407
0.001658,15466.764641648828
0.00166,15486.453555083937
0.001662,15506.549830519063
0.001664,15527.05892732656
0.001666,15547.985858429305
0.001668,15569.33517729685
0.00167,15591.11096558083
0.001672,15613.316821412202
0.001674,15635.955848379996
0.001676,15659.030645208439
0.001678,15682.543296145996
0.00168,15706.495362076816
0.001682,15730.887872361774
0.001684,15755.721317413603
0.001686,15780.99564200792
0.001688,15806.710239330028
0.00169,15832.863945755667
0.001692,15859.455036362793
0.001694,15886.481221170698
0.001696,15913.939642102554
0.001698,15941.826870667452
0.0017,15970.138906358541
0.001702,15998.871175764492
0.001704,16028.018532392583
0.001706,16057.575257202705
0.001708,16087.535059853086
0.00171,16117.891080659778
0.001712,16148.635893273224
0.001714,16179.761508076337
0.001716,16211.259376309106
0.001718,16243.12039492523
0.00172,16275.334912185948
0.001722,16307.89273399596
0.001724,16340.783130985354
0.001726,16373.994846340442
0.001728,16407.51610438522
0.00173,16441.334619913858
0.001732,16475.437608273547
0.001734,16509.811796195732
0.001736,16544.44343337278
0.001738,16579.318304776247
0.00174,16614.42174371201
0.001742,16649.738645606885
0.001744,16685.2534825207
0.001746,16720.95031837713
0.001748,16756.81282490621
0.00175,16792.824298290805
0.001752,16828.967676508983
0.001754,16865.225557363494
0.001756,16901.58021718906
0.001758,16938.01363022733
0.00176,16974.50748865844
0.001762,17011.043223276894
0.001764,17047.602024798136
0.001766,17084.16486578041
0.001768,17120.712523144677
0.00177,17157.225601273156
0.001772,17193.684555664797
0.001774,17230.069717123453
0.001776,17266.361316452174
0.001778,17302.539509624425
0.00178,17338.584403400713
0.001782,17374.47608135659
0.001784,17410.194630285947
0.001786,17445.720166941155
0.001788,17481.03286506978
0.00179,17516.112982705516
0.001792,17550.94088966938
0.001794,17585.49709523541
0.001796,17619.762275913818
0.001798,17653.717303302947
0.0018,17687.343271960486
0.001802,17720.621527242907
0.001804,17753.53369306144
0.001806,17786.061699501646
0.001808,17818.187810252744
0.00181,17849.894649791662
0.001812,17881.165230265757
0.001814,17911.9829780168
0.001816,17942.331759687564
0.001818,17972.195907851048
0.00182,18001.56024610095
0.001822,18030.41011354086
0.001824,18058.73138860837
0.001826,18086.51051216954
0.001828,18113.734509818485
0.00183,18140.39101331638
0.001832,18166.468281104746
0.001834,18191.955217828046
0.001836,18216.841392802216
0.001838,18241.117057367108
0.00184,18264.77316106316
0.001842,18287.801366575222
0.001844,18310.19406338972
0.001846,18331.944380115034
0.001848,18353.046195419003
0.00185,18373.494147542242
0.001852,18393.28364235077
0.001854,18412.41085989728
0.001856,18430.872759466067
0.001858,18448.66708308304
0.00186,18465.792357478702
0.001862,18482.247894498676
0.001864,18498.033789963156
0.001866,18513.150920983313
0.001868,18527.600941749177
0.00187,18541.386277809615
0.001872,18554.510118871116
0.001874,18566.97641014734
0.001876,18578.78984229673
0.001878,18589.95583998992
0.00188,18600.480549152995
0.001882,18610.370822936435
0.001884,18619.634206462946
0.001886,18628.2789204102
0.001888,18636.31384348706
0.00189,18643.74849386371
0.001892,18650.59300961802
0.001894,18656.85812826164
0.001896,18662.555165410755
0.001898,18667.69599266717
0.0019,18672.293014776442
0.001902,18676.35914613017
0.001904,18679.907786680076
0.001906,18682.952797331378
0.001908,18685.508474882547
0.00191,18687.589526577452
0.001912,18689.211044334486
0.001914,18690.388478715024
0.001916,18691.137612690858
0.001918,18691.474535267163
0.00192,18691.415615013717
0.001922,18690.977473553343
0.001924,18690.17695905212
0.001926,18689.03111975155
0.001928,18687.557177578277
0.00193,18685.77250186218
0.001932,18683.694583189226
0.001934,18681.341007410836
0.001936,18678.72942982722
0.001938,18675.87754955852
0.00194,18672.80308411403
0.001942,18669.523744167345
0.001944,18666.057208543567
0.001946,18662.42109942369
0.001948,18658.632957771522
0.00195,18654.71021898932
0.001952,18650.67018881009
0.001954,18646.530019437047
0.001956,18642.30668594353
0.001958,18638.016962950278
0.00196,18633.677401600395
0.001962,18629.304306856237
0.001964,18624.91371514597
0.001966,18620.52137239082
0.001968,18616.142712446926
0.00197,18611.792835997676
0.001972,18607.486489933854
0.001974,18603.23804725927
0.001976,18599.061487559076
0.001978,18594.9703780669
0.00198,18590.97785536481
0.001982,18587.096607747808
0.001984,18583.338858281768
0.001986,18579.716348580714
0.001988,18576.24032332641
0.00199,18572.921515550253
0.001992,18569.770132694917
0.001994,18566.795843470278
0.001996,18564.007765516195
0.001998,18561.414453882306
0.002,18559.023890333312
0.002002,18556.84347348654
0.002004,18554.880009787237
0.002006,18553.139705326073
0.002008,18551.628158502543
0.00201,18550.35035353759
0.002012,18549.310654838486
0.002014,18548.512802219164
0.002016,18547.95990697916
0.002018,18547.654448844547
0.00202,18547.59827377451
0.002022,18547.79259263718
0.002024,18548.237980758557
0.002026,18548.934378348164
0.002028,18549.88109180493
0.00203,18551.076795906632
0.002032,18552.519536885735
0.002034,18554.206736394062
0.002036,18556.135196357973
0.002038,18558.30110472489
0.00204,18560.700042101085
0.002042,18563.32698927931
0.002044,18566.1763356537
0.002046,18569.241888517812
0.002048,18572.51688324023
0.00205,18575.993994310727
0.002052,18579.665347248345
0.002054,18583.52253136133
0.002056,18587.556613347304
0.002058,18591.758151720438
0.00206,18596.117212051133
0.002062,18600.62338300176
0.002064,18605.26579314083
0.002066,18610.033128516094
0.002068,18614.913650965515
0.00207,18619.895217143556
0.002072,18624.965298238385
0.002074,18630.111000354158
0.002076,18635.319085530686
0.002078,18640.575993371094
0.00208,18645.86786324634
0.002082,18651.18055704332
0.002084,18656.49968242145
0.002086,18661.81061654053
0.002088,18667.098530220617
0.00209,18672.34841249288
0.002092,18677.545095498634
0.002094,18682.67327969238
0.002096,18687.717559303488
0.002098,18692.66244801041
0.0021,18697.492404780638
0.002102,18702.191859829316
0.002104,18706.74524064916
0.002106,18711.13699806409
0.002108,18715.351632258793
0.00211,18719.37371873621
0.002112,18723.187934154434
0.002114,18726.779081994227
0.002116,18730.132118007583
0.002118,18733.232175397166
0.00212,18736.064589675527
0.002122,18738.614923152116
0.002124,18740.868988995
0.002126,18742.812874813088
0.002128,18744.432965703512
0.00213,18745.7159667078
0.002132,18746.648924619454
0.002134,18747.219249085207
0.002136,18747.4147329418
0.002138,18747.22357173057
0.00214,18746.634382333064
0.002142,18745.636220672313
0.002144,18744.218598426665
0.002146,18742.371498705626
0.002148,18740.08539064037
0.00215,18737.35124284537
0.002152,18734.160535711268
0.002154,18730.505272493978
0.002156,18726.37798916899
0.002158,18721.77176302523
0.00216,18716.68021997761
0.002162,18711.09754058256
0.002164,18705.018464746416
0.002166,18698.43829512145
0.002168,18691.352899189984
0.00217,18683.758710042024
0.002172,18675.65272585697
0.002174,18667.032508104876
0.002176,18657.896178487215
0.002178,18648.242414641634
0.00218,18638.070444639183
0.002182,18627.380040306634
0.002184,18616.171509410036
0.002186,18604.445686739386
0.002188,18592.20392413768
0.00219,18579.44807952102
0.002192,18566.18050493951
0.002194,18552.40403373218
0.002196,18538.121966831608
0.002198,18523.33805827727
0.0022,18508.056499998595
0.002202,18492.28190593108
0.002204,18476.019295530237
0.002206,18459.274076749032
0.002208,18442.0520285447
0.00221,18424.35928298034
0.002212,18406.2023069854
0.002214,18387.58788383713
0.002216,18368.523094422504
0.002218,18349.015298336635
0.00222,18329.072114869956
0.002222,18308.70140393198
0.002224,18287.911246954995
0.002226,18266.709927815977
0.002228,18245.10591381031
0.00223,18223.10783670595
0.002232,18200.724473902315
0.002234,18177.96472971376
0.002236,18154.837616793873
0.002238,18131.352237713567
0.00224,18107.517766703088
0.002242,18083.343431566016
0.002244,18058.838495771604
0.002246,18034.01224073054
0.002248,18008.87394825848
0.00225,17983.43288323116
0.002252,17957.69827643491
0.002254,17931.679307616418
0.002256,17905.38508873611
0.002258,17878.824647429992
0.00226,17852.006910685825
0.002262,17824.940688740382
0.002264,17797.634659205843
0.002266,17770.097351434706
0.002268,17742.337131134176
0.00227,17714.3621852425
0.002272,17686.180507081343
0.002274,17657.799881799947
0.002276,17629.227872128326
0.002278,17600.471804458273
0.00228,17571.538755272457
0.002282,17542.435537943176
0.002284,17513.168689923878
0.002286,17483.744460357706
0.002288,17454.168798128863
0.00229,17424.447340383504
0.002292,17394.585401548058
0.002294,17364.58796287346
0.002296,17334.459662533947
0.002298,17304.20478630881
0.0023,17273.827258874426
0.002302,17243.33063573224
0.002304,17212.718095796103
0.002306,17181.992434659664
0.002308,17151.156058561122
0.00231,17120.210979059357
0.002312,17089.15880843179
0.002314,17058.00075580081
0.002316,17026.737623992383
0.002318,16995.369807127136
0.00232,16963.89728894169
0.002322,16932.319641835616
0.002324,16900.636026637407
0.002326,16868.845193081826
0.002328,16836.945480989885
0.00233,16804.934822142717
0.002332,16772.810742841048
0.002334,16740.57036714291
0.002336,16708.210420773674
0.002338,16675.72723570427
0.00234,16643.116755395447
0.002342,16610.37454070775
0.002344,16577.495776479114
0.002346,16544.475278773305
0.002348,16511.3075028042
0.00235,16477.98655154147
0.002352,16444.506185004153
0.002354,16410.8598302484
0.002356,16377.04059205542
0.002358,16343.041264324707
0.00236,16308.854342176111
0.002362,16274.472034762568
0.002364,16239.88627879275
0.002366,16205.08875276027
0.002368,16170.070891872852
0.00237,16134.82390367151
0.002372,16099.338784326303
0.002374,16063.60633559176
0.002376,16027.61718240165
0.002378,15991.36179107978
0.00238,15954.830488140658
0.002382,15918.013479651423
0.002384,15880.900871124308
0.002386,15843.482687907112
0.002388,15805.748896037605
0.00239,15767.68942352642
0.002392,15729.29418203187
0.002394,15690.553088888999
0.002396,15651.45608945438
0.002398,15611.993179727287
0.0024,15572.154429207125
0.002402,15531.930003946347
0.002404,15491.310189757356
0.002406,15450.285415531122
0.002408,15408.846276624396
0.00241,15366.983558271466
0.002412,15324.688258975266
0.002414,15281.951613831396
0.002416,15238.765117737168
0.002418,15195.12054843643
0.00242,15151.009989349235
0.002422,15106.425852134142
0.002424,15061.360898929357
0.002426,15015.808264217681
0.002428,14969.76147625906
0.00243,14923.214478033407
0.002432,14876.161647635603
0.002434,14828.597818063856
0.002436,14780.518296342281
0.002438,14731.918881918453
0.00244,14682.795884277086
0.002442,14633.146139711715
0.002444,14582.967027197494
0.002446,14532.256483309897
0.002448,14481.01301613631
0.00245,14429.235718130098
0.002452,14376.92427785981
0.002454,14324.078990609594
0.002456,14270.700767790548
0.002458,14216.791145126503
0.00246,14162.352289581795
0.002462,14107.387005002538
0.002464,14051.898736447085
0.002466,13995.89157318543
0.002468,13939.370250351592
0.00247,13882.340149237276
0.002472,13824.80729621961
0.002474,13766.778360320164
0.002476,13708.26064939726
0.002478,13649.262104978254
0.00248,13589.79129574343
0.002482,13529.857409678094
0.002484,13469.470244914506
0.002486,13408.640199290092
0.002488,13347.378258653467
0.00249,13285.695983954349
0.002492,13223.605497158052
0.002494,13161.119466029537
0.002496,13098.251087835948
0.002498,13035.01407202027
0.0025,12971.422621902004
0.002502,12907.49141546373
0.002504,12843.235585284792
0.002506,12778.670697685377
0.002508,12713.812731145663
0.00251,12648.67805406559
0.002512,12583.283401931038
0.002514,12517.645853951879
0.002516,12451.78280923642
0.002518,12385.711962565281
0.00252,12319.451279825802
0.002522,12253.0189731657
0.002524,12186.43347592201
0.002526,12119.713417378402
0.002528,12052.877597400895
0.00253,11985.94496099874
0.002532,11918.934572854143
0.002534,11851.865591861164
0.002536,11784.757245711093
0.002538,11717.628805558428
0.00254,11650.499560798637
0.002542,11583.38879398599
0.002544,11516.315755917021
0.002546,11449.299640902598
0.002548,11382.359562249263
0.00255,11315.51452796842
0.002552,11248.783416730037
0.002554,11182.184954076034
0.002556,11115.737688907177
0.002558,11049.459970256406
0.00256,10983.369924360799
0.002562,10917.48543204403
0.002564,10851.824106421222
0.002566,10786.403270938255
0.002568,10721.239937758424
0.00257,10656.350786510202
0.002572,10591.752143411235
0.002574,10527.459960785163
0.002576,10463.48979698945
0.002578,10399.856796774176
0.00258,10336.575672093406
0.002582,10273.66068339231
0.002584,10211.125621394785
0.002586,10148.983789417507
0.002588,10087.247986237524
0.00259,10025.930489541452
0.002592,9965.043039984981
0.002594,9904.59682589203
0.002596,9844.602468623116
0.002598,9785.070008642817
0.0026,9726.008892315947
0.002602,9667.427959461878
0.002604,9609.33543169575
0.002606,9551.738901584456
0.002608,9494.645322644012
0.00261,9438.061000203317
0.002612,9381.991583157273
0.002614,9326.442056629832
0.002616,9271.416735564717
0.002618,9216.919259258311
0.00262,9162.952586845844
0.002622,9109.518993748163
0.002624,9056.620069082772
0.002626,9004.256714039018
0.002628,8952.429141213868
0.00263,8901.136874901442
0.002632,8850.378752326658
0.002634,8800.152925811013
0.002636,8750.456865856539
0.002638,8701.287365132643
0.00264,8652.640543349595
0.002642,8604.511853002032
0.002644,8556.896085965976
0.002646,8509.787380933516
0.002648,8463.179231670307
0.00265,8417.064496082607
0.002652,8371.435406082415
0.002654,8326.283578241311
0.002656,8281.600025225658
0.002658,8237.375168007757
0.00266,8193.598848849177
0.002662,8150.2603450535935
0.002664,8107.348383487197
0.002666,8064.851155864636
0.002668,8022.756334798015
0.00267,7981.051090605297
0.002672,7939.72210887305
0.002674,7898.755608766628
0.002676,7858.137362078714
0.002678,7817.852713004768
0.00268,7777.886598631183
0.002682,7738.2235701190375
0.002684,7698.847814563113
0.002686,7659.743177502481
0.002688,7620.893186055352
0.00269,7582.281072647439
0.002692,7543.889799299704
0.002694,7505.702082438397
0.002696,7467.700418187754
0.002698,7429.867108103625
0.0027,7392.184285304991
0.002702,7354.633940959283
0.002704,7317.1979510769925
0.002706,7279.8581035708785
0.002708,7242.596125534961
0.00271,7205.393710698549
0.002712,7168.232547010536
0.002714,7131.094344309087
0.002716,7093.960862031537
0.002718,7056.8139369189585
0.00272,7019.6355106693045
0.002722,6982.407657492347
0.002724,6945.112611518958
0.002726,6907.7327940162895
0.002728,6870.250840359452
0.00273,6832.649626709132
0.002732,6794.912296343451
0.002734,6757.0222855911925
0.002736,6718.963349312384
0.002738,6680.71958587127
0.00274,6642.275461545985
0.002742,6603.615834318912
0.002744,6564.725976991725
0.002746,6525.591599569591
0.002748,6486.198870859772
0.00275,6446.53443923113
0.002752,6406.5854524826445
0.002754,6366.339576770876
0.002756,6325.785014548466
0.002758,6284.910521468027
0.00276,6243.705422208302
0.002762,6202.15962518217
0.002764,6160.263636088901
0.002766,6118.008570276083
0.002768,6075.386163879861
0.00277,6032.388783715538
0.002772,5989.009435894283
0.002774,5945.241773145587
0.002776,5901.08010082927
0.002778,5856.519381625175
0.00278,5811.555238893332
0.002782,5766.183958702177
0.002784,5720.402490527398
0.002786,5674.208446628994
0.002788,5627.600100119201
0.00279,5580.576381738999
0.002792,5533.13687536594
0.002794,5485.281812280892
0.002796,5437.012064226134
0.002798,5388.329135291774
0.0028,5339.235152672004
0.002802,5289.732856336817
0.002804,5239.8255876687335
0.002806,5189.517277117548
0.002808,5138.812430929121
0.00281,5087.7161170067875
0.002812,5036.23394996588
0.002814,4984.372075443185
0.002816,4932.137153723837
0.002818,4879.536342748197
0.00282,4826.577280560814
0.002822,4773.268067262456
0.002824,4719.617246524642
0.002826,4665.633786724088
0.002828,4611.327061752026
0.00283,4556.706831550656
0.002832,4501.783222425985
0.002834,4446.566707183112
0.002836,4391.068085126726
0.002838,4335.298461966271
0.00284,4279.269229661956
0.002842,4222.9920462445825
0.002844,4166.478815639074
0.002846,4109.741667518695
0.002848,4052.792937214182
0.00285,3995.645145699488
0.002852,3938.3109796734384
0.002854,3880.8032717543842
0.002856,3823.1349808028253
0.002858,3765.3191723850655
0.00286,3707.3689993891894
0.002862,3649.297682803088
0.002864,3591.1184926628694
0.002866,3532.8447291789353
0.002868,3474.489704046232
0.00287,3416.066721944746
0.002872,3357.5890622361867
0.002874,3299.0699608628825
0.002876,3240.522592455287
0.002878,3181.960052655047
0.00288,3123.3953406614114
0.002882,3064.841342009737
0.002884,3006.3108115920877
0.002886,2947.8163569313574
0.002888,2889.3704217221252
0.00289,2830.985269653399
0.002892,2772.6729685306004
0.002894,2714.44537471641
0.002896,2656.3141179123727
0.002898,2598.2905863054043
0.0029,2540.3859121053547
0.002902,2482.6109575015676
0.002904,2424.9763010677916
0.002906,2367.4922246458977
0.002908,2310.168700739596
0.00291,2253.015380449719
0.002912,2196.041581982622
0.002914,2139.2562797628243
0.002916,2082.668094180186
0.002918,2026.285282000635
0.00292,1970.1157274677014
0.002922,1914.1669341199035
0.002924,1858.4460173463563
0.002926,1802.9596976999492
0.002928,1747.7142949841007
0.00293,1692.7157231256042
0.002932,1637.9694858424816
0.002934,1583.4806731122349
0.002936,1529.2539584424892
0.002938,1475.2935969428581
0.00294,1421.6034241940092
0.002942,1368.1868559074478
0.002944,1315.0468883675433
0.002946,1262.1860996458136
0.002948,1209.6066515765335
0.00295,1157.3102924822986
0.002952,1105.298360638255
0.002954,1053.5717884641847
0.002956,1002.1311074344407
0.002958,950.9764536966978
0.00296,900.1075743915794
0.002962,849.5238346662808
0.002964,799.2242253762888
0.002966,749.2073714701135
0.002968,699.4715410526038
0.00297,650.0146551228949
0.002972,600.8342979833018
0.002974,551.9277283155036
0.002976,503.29189092011734
0.002978,454.9234291152334
0.00298,406.8186977886802
0.002982,358.97377709764487
0.002984,311.38448680778436
0.002986,264.0464012621132
0.002988,216.95486496778832
0.00299,170.1050087864907
0.002992,123.49176671146982
0.002994,77.10989321153173
0.002996,30.95398111939646
0.002998,-14.981519960995698
0.003,-60.70228475645294
0.003002,-106.21409296678642
0.003004,-151.52280948116154
0.003006,-196.63436420516254
0.003008,-241.5547315379517
0.00301,-286.289909541578
0.003012,-330.84589884701575
0.003014,-375.2286813438183
0.003016,-419.4441987022444
0.003018,-463.4983307782307
0.00302,-507.39687395258534
0.003022,-551.1455194562639
0.003024,-594.7498317336341
0.003026,-638.2152268953553
0.003028,-681.5469513120042
0.00303,-724.7500603990244
0.003032,-767.8293976430532
0.003034,-810.7895739193067
0.003036,-853.6349471494703
0.003038,-896.3696023494632
0.00304,-938.9973321164545
0.003042,-981.5216176045368
0.003044,-1023.9456100384843
0.003046,-1066.272112814997
0.003048,-1108.5035642407838
0.00305,-1150.642020956754
0.003052,-1192.6891420975119
0.003054,-1234.646174235276
0.003056,-1276.513937157244
0.003058,-1318.2928105252486
0.00306,-1359.9827214662016
0.003062,-1401.583133141208
0.003064,-1443.093034340209
0.003066,-1484.5109301475413
0.003068,-1525.8348337217556
0.00307,-1567.0622592304296
0.003072,-1608.1902159775502
0.003074,-1649.2152037573642
0.003076,-1690.1332094645247
0.003078,-1730.939704985929
0.00308,-1771.629646394977
0.003082,-1812.1974744641157
0.003084,-1852.6371165065316
0.003086,-1892.9419895527874
0.003088,-1933.1050048630095
0.00309,-1973.118573770039
0.003092,-2012.9746148436761
0.003094,-2052.6645623609083
0.003096,-2092.179376061782
0.003098,-2131.5095521654034
0.0031,-2170.645135615445
0.003102,-2209.5757335194785
0.003104,-2248.290529741542
0.003106,-2286.77830060259
0.003108,-2325.027431638999
0.00311,-2363.025935365122
0.003112,-2400.76146998216
0.003114,-2438.2213589723524
0.003116,-2475.3926115148665
0.003118,-2512.261943657712
0.00312,-2548.8158001785987
0.003122,-2585.0403770668277
0.003124,-2620.9216445579964
0.003126,-2656.44537065346
0.003128,-2691.597145057044
0.00313,-2726.3624034624363
0.003132,-2760.726452125963
0.003134,-2794.674492661097
0.003136,-2828.1916469930597
0.003138,-2861.262982414256
0.00314,-2893.873536684034
0.003142,-2926.0083431192893
0.003144,-2957.652455625716
0.003146,-2988.7909736229694
0.003148,-3019.4090668204813
0.00315,-3049.4919998041423
0.003152,-3079.0251563974016
0.003154,-3107.9940637635123
0.003156,-3136.384416218681
0.003158,-3164.1820987287447
0.00316,-3191.373210064705
0.003162,-3217.9440855949847
0.003164,-3243.8813196946435
0.003166,-3269.171787753974
0.003168,-3293.802667770893
0.00317,-3317.7614615133025
0.003172,-3341.036015239053
0.003174,-3363.614539962332
0.003176,-3385.4856312562056
0.003178,-3406.638288581667
0.00318,-3427.0619341339707
0.003182,-3446.746431197193
0.003184,-3465.682101997921
0.003186,-3483.8597450487764
0.003188,-3501.270651972077
0.00319,-3517.9066237933444
0.003192,-3533.759986693538
0.003194,-3548.8236072078107
0.003196,-3563.090906857342
0.003198,-3576.5558761993743
0.0032,-3589.2130882790007
0.003202,-3601.0577114645494
0.003204,-3612.085521646694
0.003206,-3622.292913779626
0.003208,-3631.676912741001
0.00321,-3640.235183485799
0.003212,-3647.966040467912
0.003214,-3654.868456302204
0.003216,-3660.9420696390516
0.003218,-3666.1871922231335
0.00322,-3670.604815108395
0.003222,-3674.19661400187
0.003224,-3676.964953710246
0.003226,-3678.912891664812
0.003228,-3680.044180502625
0.00323,-3680.3632696843533
0.003232,-3679.8753061321368
0.003234,-3678.5861338740165
0.003236,-3676.502292684819
0.003238,-3673.6310157168787
0.00324,-3669.9802261175264
0.003242,-3665.558532633859
0.003244,-3660.3752242087776
0.003246,-3654.440263575656
0.003248,-3647.76427986209
0.00325,-3640.358560215929
0.003252,-3632.2350404690455
0.003254,-3623.406294856036
0.003256,-3613.8855248062
0.003258,-3603.6865468277647
0.00326,-3592.8237795034925
0.003262,-3581.3122296166453
0.003264,-3569.1674774258227
0.003266,-3556.4056611066803
0.003268,-3543.043460377982
0.00327,-3529.0980793289255
0.003272,-3514.587228464309
0.003274,-3499.5291059837355
0.003276,-3483.9423783107527
0.003278,-3467.8461598875715
0.00328,-3451.2599922507625
0.003282,-3434.2038224032103
0.003284,-3416.6979804975604
0.003286,-3398.7631568465868
0.003288,-3380.4203782763248
0.00329,-3361.69098383856
0.003292,-3342.5965999003524
0.003294,-3323.15911462966
0.003296,-3303.4006518977903
0.003298,-3283.343544621362
0.0033,-3263.010307568584
0.003302,-3242.423609657008
0.003304,-3221.606245772395
0.003306,-3200.581108140946
0.003308,-3179.371157289863
0.00331,-3157.999392633997
0.003312,-3136.4888227291644
0.003314,-3114.862435235521
0.003316,-3093.1431666370418
0.003318,-3071.353871765664
0.00332,-3049.5172931809116
0.003322,-3027.656030457883
0.003324,-3005.792509438222
0.003326,-2983.948951500304
0.003328,-2962.147342906217
0.00333,-2940.4094042844195
0.003332,-2918.7565603080825
0.003334,-2897.2099096302272
0.003336,-2875.7901951376207
0.003338,-2854.5177745861006
0.00334,-2833.412591680314
0.003342,-2812.4941476608315
0.003344,-2791.7814734610797
0.003346,-2771.29310249559
0.003348,-2751.0470441396415
0.00335,-2731.06075795863
0.003352,-2711.3511287434353
0.003354,-2691.9344424058227
0.003356,-2672.82636278555
0.003358,-2654.0419094184513
0.00336,-2635.595436312324
0.003362,-2617.5006117750586
0.003364,-2599.7703993371206
0.003366,-2582.4170398082542
0.003368,-2565.452034506161
0.00337,-2548.8861296929276
0.003372,-2532.7293022531626
0.003374,-2516.9907466461223
0.003376,-2501.6788631625122
0.003378,-2486.8012475150827
0.00338,-2472.3646817904505
0.003382,-2458.375126787698
0.003384,-2444.8377157671075
0.003386,-2431.75674962981
0.003388,-2419.135693546063
0.00339,-2406.9771750463715
0.003392,-2395.2829835856564
0.003394,-2384.054071586224
0.003396,-2373.290556960435
0.003398,-2362.9917271086874
0.0034,-2353.1560443827893
0.003402,-2343.781152998951
0.003404,-2334.8638873786263
0.003406,-2326.400281889359
0.003408,-2318.3855819516402
0.00341,-2310.814256471864
0.003412,-2303.6800115557485
0.003414,-2296.97580545132
0.003416,-2290.693864665767
0.003418,-2284.8257011963024
0.00342,-2279.3621308117554
0.003422,-2274.293292319004
0.003424,-2269.6086677465887
0.003426,-2265.2971033769472
0.003428,-2261.346831558529
0.00343,-2257.7454932296464
0.003432,-2254.4801610871377
0.003434,-2251.5373633347444
0.003436,-2248.9031079483057
0.003438,-2246.5629073974615
0.00344,-2244.5018037663194
0.003442,-2242.704394218463
0.003444,-2241.154856754627
0.003446,-2239.836976214241
0.003448,-2238.7341704747437
0.00345,-2237.829516805071
0.003452,-2237.105778332013
0.003454,-2236.5454305802455
0.003456,-2236.130688048803
0.003458,-2235.843530788638
0.00346,-2235.665730947701
0.003462,-2235.5788792518174
0.003464,-2235.5644113915037
0.003466,-2235.603634286899
0.003468,-2235.67775220506
0.00347,-2235.767892706085
0.003472,-2235.8551323966717
0.003474,-2235.920522471936
0.003476,-2235.9451140283845
0.003478,-2235.909983132962
0.00348,-2235.7962556348925
0.003482,-2235.585131708665
0.003484,-2235.2579101178444
0.003486,-2234.796012190432
0.003488,-2234.1810054971693
0.00349,-2233.394627224482
0.003492,-2232.4188072335915
0.003494,-2231.235690796776
0.003496,-2229.8276610008043
0.003498,-2228.177360806226
0.0035,-2226.267714749501
0.003502,-2224.081950272962
0.003504,-2221.6036186652955
0.003506,-2218.8166155928357
0.003508,-2215.7052011994356
0.00351,-2212.254019750244
0.003512,-2208.4481187923548
0.003514,-2204.2729678031615
0.003516,-2199.714476295393
0.003518,-2194.7590113462684
0.00352,-2189.3934145170674
0.003522,-2183.6050181286555
0.003524,-2177.3816608581674
0.003526,-2170.711702622091
0.003528,-2163.5840387114363
0.00353,-2155.9881131455327
0.003532,-2147.9139312122456
0.003534,-2139.352071164121
0.003536,-2130.293695042034
0.003538,-2120.7305586004472
0.00354,-2110.655020311176
0.003542,-2100.060049425724
0.003544,-2088.9392330795454
0.003546,-2077.2867824250084
0.003548,-2065.0975377832115
0.00355,-2052.3669728080486
0.003552,-2039.0911976589455
0.003554,-2025.2669611813797
0.003556,-2010.8916520966534
0.003558,-1995.9632992043535
0.00356,-1980.48057060259
0.003562,-1964.4427719324128
0.003564,-1947.849843653852
0.003566,-1930.7023573618046
0.003568,-1913.0015111505556
0.00357,-1894.7491240360955
0.003572,-1875.9476294456542
0.003574,-1856.6000677840493
0.003576,-1836.7100780866883
0.003578,-1816.28188876937
0.00358,-1795.3203074855098
0.003582,-1773.8307101020148
0.003584,-1751.8190288058356
0.003586,-1729.2917393541459
0.003588,-1706.2558474821562
0.00359,-1682.7188744836476
0.003592,-1658.6888419803827
0.003594,-1634.1742558975013
0.003596,-1609.1840896629178
0.003598,-1583.7277666495581
0.0036,-1557.815141880072
0.003602,-1531.4564830144225
0.003604,-1504.662450641586
0.003606,-1477.444077897562
0.003608,-1449.8127494331202
0.00361,-1421.780179756233
0.003612,-1393.3583909759889
0.003614,-1364.5596899769469
0.003616,-1335.3966450553573
0.003618,-1305.8820620514196
0.00362,-1276.0289600147498
0.003622,-1245.8505464434195
0.003624,-1215.3601921401978
0.003626,-1184.5714057330135
0.003628,-1153.497807910065
0.00363,-1122.1531054234556
0.003632,-1090.5510649186406
0.003634,-1058.7054866502117
0.003636,-1026.6301781475693
0.003638,-994.3389278966968
0.00364,-961.8454791064705
0.003642,-929.1635036295731
0.003644,-896.3065761090243
0.003646,-863.288148421567
0.003648,-830.1215244886378
0.00365,-796.8198355244772
0.003652,-763.3960157891729
0.003654,-729.8627789121832
0.003656,-696.2325948492646
0.003658,-662.5176675328214
0.00366,-628.7299132726113
0.003662,-594.8809399605105
0.003664,-560.9820271297552
0.003666,-527.0441069157473
0.003668,-493.0777459622176
0.00367,-459.0931283132963
0.003672,-425.100039328945
0.003674,-391.1078506583151
0.003676,-357.1255063029713
0.003678,-323.16150979959633
0.00368,-289.22391254973974
0.003682,-255.32030332236366
0.003684,-221.4577989532742
0.003686,-187.64303626389767
0.003688,-153.88216522012453
0.00369,-120.18084334994933
0.003692,-86.54423143627295
0.003694,-52.976990498430204
0.003696,-19.4832800727418
0.003698,13.933242201315986
0.0037,47.26941968683431
0.003702,80.52259454903601
0.003704,113.69060425534721
0.003706,146.7717767875932
0.003708,179.76492458309187
0.00371,212.6693372267594
0.003712,245.48477292184003
0.003714,278.21144877246536
0.003716,310.8500299168394
0.003718,343.4016175553042
0.00372,375.86773592272317
0.003722,408.2503182593694
0.003724,440.5516918387039
0.003726,472.77456211394224
0.003728,504.9219960480742
0.00373,536.9974046939822
0.003732,569.0045250925212
0.003734,600.9474015569455
0.003736,632.8303664119356
0.003738,664.6580202548023
0.00374,696.435211805258
0.003742,728.1670174085467
0.003744,759.8587202547355
0.003746,791.5157893746367
0.003748,823.1438584701893
0.00375,854.7487046342331
0.003752,886.3362270115138
0.003754,917.9124254495104
0.003756,949.4833791843585
0.003758,981.0552256037884
0.00376,1012.6341391256835
0.003762,1044.2263102276013
0.003764,1075.837924659393
0.003766,1107.4751428679353
0.003768,1139.1440796599404
0.00377,1170.85078412588
0.003772,1202.6012198452486
0.003774,1234.4012453907253
0.003776,1266.2565951463303
0.003778,1298.1728604524246
0.00378,1330.1554710884157
0.003782,1362.2096771022739
0.003784,1394.340530994472
0.003786,1426.5528702626991
0.003788,1458.8513003127168
0.00379,1491.2401777399837
0.003792,1523.7235939861623
0.003794,1556.3053593743653
0.003796,1588.9889875270187
0.003798,1621.7776801705747
0.0038,1654.674312331986
0.003802,1687.6814179328367
0.003804,1720.8011757883148
0.003806,1754.0353960197624
0.003808,1787.3855068913886
0.00381,1820.852542083745
0.003812,1854.4371284187437
0.003814,1888.1394740532592
0.003816,1921.959357160662
0.003818,1955.8961151219298
0.00382,1989.948634250157
0.003822,2024.1153400742771
0.003824,2058.394188209514
0.003826,2092.7826558434685
0.003828,2127.277733867744
0.00383,2161.8759196855954
0.003832,2196.573210726238
0.003834,2231.365098696187
0.003836,2266.2465645973793
0.003838,2301.2120745408483
0.00384,2336.2555763833966
0.003842,2371.370497213008
0.003844,2406.549741706726
0.003846,2441.7856913823716
0.003848,2477.0702047628815
0.00385,2512.394618469221
0.003852,2547.749749254819
0.003854,2583.1258969914447
0.003856,2618.512848613378
0.003858,2653.8998830238484
0.00386,2689.2757769648892
0.003862,2724.628811849149
0.003864,2759.9467815496487
0.003866,2795.217001141108
0.003868,2830.4263165840935
0.00387,2865.5611153409754
0.003872,2900.607337910439
0.003874,2935.5504902651037
0.003876,2970.375657174759
0.003878,3005.0675163958044
0.00388,3039.6103537058007
0.003882,3073.9880787606594
0.003884,3108.184241750908
0.003886,3142.182050832741
0.003888,3175.964390309092
0.00389,3209.51383953577
0.003892,3242.8126925277593
0.003894,3275.8429782410053
0.003896,3308.5864815053537
0.003898,3341.0247645847435
0.0039,3373.139189341197
0.003902,3404.9109399795916
0.003904,3436.321046350584
0.003906,3467.3504077892912
0.003908,3497.97981746732
0.00391,3528.1899872354493
0.003912,3557.9615729336424
0.003914,3587.2752001440263
0.003916,3616.1114903610724
0.003918,3644.451087551377
0.00392,3672.274685073314
0.003922,3699.563052924434
0.003924,3726.297065281836
0.003926,3752.4577282979562
0.003928,3778.0262081112232
0.00393,3802.9838590280124
0.003932,3827.3122518293135
0.003934,3850.9932021525065
0.003936,3874.0087988958194
0.003938,3896.3414325902913
0.00394,3917.9738236816684
0.003942,3938.889050662552
0.003944,3959.070577993382
0.003946,3978.5022837494607
0.003948,3997.1684869302067
0.00395,4015.0539743661107
0.003952,4032.144027158541
0.003954,4048.424446587443
0.003956,4063.8815794222724
0.003958,4078.5023425720256
0.00396,4092.274247011204
0.003962,4105.1854209197945
0.003964,4117.224631977098
0.003966,4128.3813087512
0.003968,4138.645561128229
0.00397,4148.0081997281195
0.003972,4156.460754256297
0.003974,4163.9954907436695
0.003976,4170.605427630169
0.003978,4176.284350650232
0.00398,4181.026826481602
0.003982,4184.828215122177
0.003984,4187.684680962884
0.003986,4189.593202528116
0.003988,4190.5515808588925
0.00399,4190.558446517649
0.003992,4189.613265197461
0.003994,4187.716341922283
0.003996,4184.868823828538
0.003998,4181.072701521935
0.004,4176.330809006853
0.004002,4170.646822188849
0.004004,4164.025255954091
0.004006,4156.47145983257
0.004008,4147.991612255002
0.00401,4138.592713416541
0.004012,4128.282576763552
0.004014,4117.0698191231
0.004016,4104.963849498191
0.004018,4091.974856555278
0.00402,4078.1137948341325
0.004022,4063.3923697137798
0.004024,4047.8230211718987
0.004026,4031.4189063787894
0.004028,4014.1938811707646
0.00403,3996.1624804516337
0.004032,3977.33989757477
0.004034,3957.7419627620216
0.004036,3937.385120619315
0.004038,3916.2864068120543
0.00404,3894.46342396622
0.004042,3871.934316863296
0.004044,3848.7177469986204
0.004046,3824.83286657347
0.004048,3800.2992919909666
0.00405,3775.137076924976
0.004052,3749.366685029504
0.004054,3723.008962353776
0.004056,3696.08510952542
0.004058,3668.6166537608974
0.00406,3640.6254207587517
0.004062,3612.1335065274175
0.004064,3583.163249195215
0.004066,3553.7372008459424
0.004068,3523.8780994190824
0.00407,3493.608840709272
0.004072,3462.9524504953706
0.004074,3431.932056825306
0.004076,3400.570862478992
0.004078,3368.892117628037
0.00408,3336.9190927077825
0.004082,3304.675051514432
0.004084,3272.183224537674
0.004086,3239.4667825372703
0.004088,3206.548810370587
0.00409,3173.452281076989
0.004092,3140.200030224495
0.004094,3106.8147305240072
0.004096,3073.3188667168647
0.004098,3039.7347107423857
0.0041,3006.0842971934185
0.004102,2972.3893990696674
0.004104,2938.6715038406005
0.004106,2904.9517898319677
0.004108,2871.2511029522775
0.00411,2837.589933777855
0.004112,2803.9883950173194
0.004114,2770.466199378305
0.004116,2737.0426378610637
0.004118,2703.736558505098
0.00412,2670.566345616321
0.004122,2637.549899503317
0.004124,2604.7046167522085
0.004126,2572.047371070468
0.004128,2539.5944947307103
0.00413,2507.3617606462362
0.004132,2475.364365110741
0.004134,2443.6169112352973
0.004136,2412.133393116312
0.004138,2380.927180768757
0.00414,2350.0110058593773
0.004142,2319.3969482748953
0.004144,2289.096423560196
0.004146,2259.120171261245
0.004148,2229.478244206836
0.00415,2200.1799987623085
0.004152,2171.234086087027
0.004154,2142.6484444256967
0.004156,2114.430292461555
0.004158,2086.586123757084
0.00416,2059.1217023051845
0.004162,2032.0420592107498
0.004164,2005.3514905192874
0.004166,1979.0535562056914
0.004168,1953.1510803325111
0.00417,1927.6461523831429
0.004172,1902.5401297713634
0.004174,1877.8336415246176
0.004176,1853.5265931345427
0.004178,1829.6181725644262
0.00418,1806.106857399721
0.004182,1782.990423124431
0.004184,1760.2659525031947
0.004186,1737.9298460463351
0.004188,1715.9778335329515
0.00419,1694.4049865654124
0.004192,1673.2057321272664
0.004194,1652.3738671157018
0.004196,1631.9025738191697
0.004198,1611.7844363106597
0.0042,1592.0114577272748
0.004202,1572.5750784071324
0.004204,1553.4661948551543
0.004206,1534.6751795099028
0.004208,1516.1919012841806
0.00421,1498.0057468525513
0.004212,1480.1056426591217
0.004214,1462.4800776188508
0.004216,1445.1171264852212
0.004218,1428.004473856404
0.00422,1411.1294387909916
0.004222,1394.4790000030382
0.004224,1378.0398216045487
0.004226,1361.7982793617289
0.004228,1345.740487429347
0.00423,1329.8523255254227
0.004232,1314.1194665061503
0.004234,1298.5274042985154
0.004236,1283.0614821454553
0.004238,1267.7069211157407
0.00424,1252.4488488280413
0.004242,1237.272328335929
0.004244,1222.162387117949
0.004246,1207.104046114465
0.004248,1192.0823487508153
0.00425,1177.0823898844806
0.004252,1162.0893446124103
0.004254,1147.0884968734479
0.004256,1132.065267779922
0.004258,1117.0052436119868
0.00426,1101.89420340813
0.004262,1086.71814608546
0.004264,1071.4633170239133
0.004266,1056.1162340494552
0.004268,1040.6637127527092
0.00427,1025.0928910812115
0.004272,1009.3912531456463
0.004274,993.5466521828781
0.004276,977.5473326214014
0.004278,961.3819511978563
0.00428,945.0395970764772
0.004282,928.5098109266621
0.004284,911.7826029172634
0.004286,894.8484695896801
0.004288,877.6984095754059
0.00429,860.3239381273246
0.004292,842.717100437739
0.004294,824.8704837198477
0.004296,806.7772280331244
0.004298,788.4310358367485
0.0043,769.8261802588449
0.004302,750.9575120727528
0.004304,731.8204653748701
0.004306,712.41106196185
0.004308,692.7259144081161
0.00431,672.76222784788
0.004312,652.5178004691282
0.004314,631.9910227304188
0.004316,611.1808753147886
0.004318,590.0869258385661
0.00432,568.7093243363245
0.004322,547.0487975465226
0.004324,525.1066420254817
0.004326,502.884716120228
0.004328,480.38543083338624
0.00433,457.61173961576793
0.004332,434.56712712460467
0.004334,411.2555969876011
0.004336,387.681658615185
0.004338,363.8503131055299
0.00434,339.7670382891112
0.004342,315.4377729616757
0.004344,290.86890035652686
0.004346,266.06723090888653
0.004348,241.03998436674766
0.00435,215.79477130402805
0.004352,190.33957409296258
0.004354,164.68272739354074
0.004356,138.83289821840285
0.004358,112.79906563193809
0.00436,86.59050014233961
0.004362,60.21674284501322
0.004364,33.68758437494351
0.004366,7.013043724291207
0.004368,-19.796653020453665
0.00437,-46.7310939700494
0.004372,-73.77970270432975
0.004374,-100.93175947956273
0.004376,-128.1764223308148
0.004378,-155.50274803330183
0.00438,-182.89971289139788
0.004382,-210.35623332869352
0.004384,-237.861186257121
0.004386,-265.4034292076127
0.004388,-292.9718202089701
0.00439,-320.5552374055158
0.004392,-348.14259840757376
0.004394,-375.7228793717805
0.004396,-403.28513381059236
0.004398,-430.8185111320635
0.0044,-458.31227491194363
0.004402,-485.75582090034874
0.004404,-513.1386947647073
0.004406,-540.4506095694566
0.004408,-567.6814629911693
0.00441,-594.8213542655343
0.004412,-621.8606008599762
0.004414,-648.789754862825
0.004416,-675.5996190769436
0.004418,-702.2812628027285
0.00442,-728.8260372924819
0.004422,-755.2255908553892
0.004424,-781.4718835898107
0.004426,-807.5572017173857
0.004428,-833.4741714916355
0.00443,-859.2157726523407
0.004432,-884.7753513959802
0.004434,-910.146632831909
0.004436,-935.3237328936942
0.004438,-960.3011696750514
0.00444,-985.0738741600151
0.004442,-1009.6372003172958
0.004444,-1033.9869345291702
0.004446,-1058.119304325744
0.004448,-1082.0309863960542
0.00445,-1105.719113848205
0.004452,-1129.1812826916414
0.004454,-1152.4155575157133
0.004456,-1175.4204763399246
0.004458,-1198.1950546126313
0.00446,-1220.7387883363995
0.004462,-1243.0516562997223
0.004464,-1265.1341213963008
0.004466,-1286.9871310146643
0.004468,-1308.6121164825493
0.00447,-1330.0109915522191
0.004472,-1351.186149914859
0.004474,-1372.1404617343676
0.004476,-1392.8772691933966
0.004478,-1413.4003810473325
0.00448,-1433.7140661850601
0.004482,-1453.8230461987264
0.004484,-1473.7324869682716
0.004486,-1493.4479892701295
0.004488,-1512.975578423113
0.00449,-1532.3216929880318
0.004492,-1551.4931725409315
0.004494,-1570.4972445429958
0.004496,-1589.3415103330447
0.004498,-1608.0339302711386
0.0045,-1626.582808063999
0.004502,-1644.9967743047162
0.004504,-1663.2847692605283
0.004506,-1681.4560249432798
0.004508,-1699.5200464975578
0.00451,-1717.4865929414523
0.004512,-1735.3656572945083
0.004514,-1753.1674461268078
0.004516,-1770.9023585623297
0.004518,-1788.5809647688927
0.00452,-1806.21398396614
0.004522,-1823.8122619822161
0.004524,-1841.3867483891138
0.004526,-1858.948473246125
0.004528,-1876.5085234804953
0.00453,-1894.078018934346
0.004532,-1911.6680881072639
0.004534,-1929.2898436247553
0.004536,-1946.9543574640672
0.004538,-1964.6726359707038
0.00454,-1982.4555947012873
0.004542,-2000.3140331311295
0.004544,-2018.2586092679537
0.004546,-2036.299814216452
0.004548,-2054.447946741637
0.00455,-2072.7130878821467
0.004552,-2091.1050756675936
0.004554,-2109.633479996717
0.004556,-2128.307577735311
0.004558,-2147.136328094686
0.00456,-2166.1283483527154
0.004562,-2185.2918899802685
0.004564,-2204.634815236106
0.004566,-2224.164574292956
0.004568,-2243.8881829567163
0.00457,-2263.812201039401
0.004572,-2283.942711444768
0.004574,-2304.285300023569
0.004576,-2324.8450362531244
0.004578,-2345.6264547935434
0.00458,-2366.6335379704688
0.004582,-2387.8696992317323
0.004584,-2409.3377676228665
0.004586,-2431.0399733238664
0.004588,-2452.9779342871093
0.00459,-2475.1526440136936
0.004592,-2497.564460502799
0.004594,-2520.2130964057824
0.004596,-2543.0976104137176
0.004598,-2566.2163999038776
0.0046,-2589.567194867289
0.004602,-2613.1470531359623
0.004604,-2636.9523569247226
0.004606,-2660.9788106986543
0.004608,-2685.221440373148
0.00461,-2709.6745938492986
0.004612,-2734.331942883189
0.004614,-2759.186486283292
0.004616,-2784.2305544260307
0.004618,-2809.4558150754697
0.00462,-2834.8532804893202
0.004622,-2860.4133157900264
0.004624,-2886.1256485766266
0.004626,-2911.979379750432
0.004628,-2937.962995525176
0.00463,-2964.0643805902337
0.004632,-2990.2708323936167
0.004634,-3016.5690765096965
0.004636,-3042.945283054855
0.004638,-3069.3850841125545
0.00464,-3095.8735921275847
0.004642,-3122.3954192275874
0.004644,-3148.9346974284035
0.004646,-3175.475099678272
0.004648,-3201.9998616944704
0.00465,-3228.491804544643
0.004652,-3254.9333579237377
0.004654,-3281.3065840761437
0.004656,-3307.5932023112596
0.004658,-3333.774614059296
0.00466,-3359.831928412773
0.004662,-3385.7459880979227
0.004664,-3411.497395819229
0.004666,-3437.066540919657
0.004668,-3462.4336262988922
0.00467,-3487.578695532165
0.004672,-3512.4816601330335
0.004674,-3537.1223269047755
0.004676,-3561.4804253267357
0.004678,-3585.5356349240883
0.00468,-3609.267612571895
0.004682,-3632.6560196870887
0.004684,-3655.680549265065
0.004686,-3678.32095272085
0.004688,-3700.557066498378
0.00469,-3722.3688384152533
0.004692,-3743.7363537144215
0.004694,-3764.6398607983438
0.004696,-3785.0597966254372
0.004698,-3804.9768117525714
0.0047,-3824.371795011152
0.004702,-3843.2258978076507
0.004704,-3861.520558042249
0.004706,-3879.2375236413864
0.004708,-3896.358875701456
0.00471,-3912.867051241569
0.004712,-3928.7448655633116
0.004714,-3943.9755342146304
0.004716,-3958.542694553635
0.004718,-3972.4304269061554
0.00472,-3985.6232753084855
0.004722,-3998.106267824069
0.004724,-4009.8649364198927
0.004726,-4020.8853363853223
0.004728,-4031.154065273062
0.00473,-4040.658281338912
0.004732,-4049.3857214542177
0.004734,-4057.324718462293
0.004736,-4064.464217947768
0.004738,-4070.793794385851
0.00474,-4076.3036666368057
0.004742,-4080.9847127496855
0.004744,-4084.8284840385113
0.004746,-4087.827218393641
0.004748,-4089.9738527911245
0.00475,-4091.262034963369
0.004752,-4091.686134195429
0.004754,-4091.24125121269
0.004756,-4089.923227127537
0.004758,-4087.7286514147927
0.00476,-4084.654868888086
0.004762,-4080.6999856518487
0.004764,-4075.8628740061977
0.004766,-4070.1431762845536
0.004768,-4063.5413076063264
0.00477,-4056.058457529488
0.004772,-4047.6965905901934
0.004774,-4038.4584457189058
0.004776,-4028.347534524748
0.004778,-4017.3681384420383
0.00478,-4005.5253047352153
0.004782,-3992.8248413606607
0.004784,-3979.273310686329
0.004786,-3964.8780220725916
0.004788,-3949.6470233203804
0.00479,-3933.5890909955174
0.004792,-3916.7137196410545
0.004794,-3899.0311098925254
0.004796,-3880.5521555141418
0.004798,-3861.288429377153
0.0048,-3841.252168404742
0.004802,-3820.4562575108316
0.004804,-3798.914212563013
0.004806,-3776.6401624022956
0.004808,-3753.6488299545135
0.00481,-3729.9555124698595
0.004812,-3705.576060928199
0.004814,-3680.526858648446
0.004816,-3654.8247991405347
0.004818,-3628.487263238321
0.00482,-3601.532095551295
0.004822,-3573.9775802723125
0.004824,-3545.8424163776986
0.004826,-3517.145692255238
0.004828,-3487.906859794692
0.00483,-3458.1457079747784
0.004832,-3427.8823359799226
0.004834,-3397.1371258797367
0.004836,-3365.930714903953
0.004838,-3334.283967345652
0.00484,-3302.2179461259448
0.004842,-3269.7538840539205
0.004844,-3236.913154816652
0.004846,-3203.7172437352683
0.004848,-3170.1877183247134
0.00485,-3136.346198696559
0.004852,-3102.214327846288
0.004854,-3067.813741868596
0.004856,-3033.166040146486
0.004858,-2998.292755562222
0.00486,-2963.2153247804326
0.004862,-2927.955058655829
0.004864,-2892.533112820001
0.004866,-2856.970458503625
0.004868,-2821.28785365201
0.00487,-2785.505814393353
0.004872,-2749.6445869202157
0.004874,-2713.7241198456322
0.004876,-2677.7640370958106
0.004878,-2641.783611401654
0.00488,-2605.8017384512036
0.004882,-2569.836911764585
0.004884,-2533.907198352069
0.004886,-2498.0302152144423
0.004888,-2462.2231067429398
0.00489,-2426.502523073675
0.004892,-2390.8845994487037
0.004894,-2355.384936632707
0.004896,-2320.0185824307864
0.004898,-2284.800014349112
0.0049,-2249.7431234362534
0.004902,-2214.8611993389472
0.004904,-2180.1669166019196
0.004906,-2145.672322237086
0.004908,-2111.3888245831567
0.00491,-2077.3271834722896
0.004912,-2043.4975017160543
0.004914,-2009.9092179185361
0.004916,-1976.571100620055
0.004918,-1943.491243770692
0.00492,-1910.677063528754
0.004922,-1878.1352963754553
0.004924,-1845.8719985335222
0.004926,-1813.8925466740895
0.004928,-1782.201639893226
0.00493,-1750.8033029365972
0.004932,-1719.700890648168
0.004934,-1688.8970936163207
0.004936,-1658.3939449883464
0.004938,-1628.192828421925
0.00494,-1598.2944871399568
0.004942,-1568.6990340529917
0.004944,-1539.4059629114888
0.004946,-1510.414160448348
0.004948,-1481.721919470566
0.00495,-1453.3269528575274
0.004952,-1425.2264084223013
0.004954,-1397.4168845913284
0.004956,-1369.8944468570276
0.004958,-1342.6546449570787
0.00496,-1315.6925307334272
0.004962,-1289.0026766233416
0.004964,-1262.5791947341718
0.004966,-1236.4157564527934
0.004968,-1210.5056125401911
0.00497,-1184.8416136612702
0.004972,-1159.4162312998346
0.004974,-1134.2215790087548
0.004976,-1109.2494339456873
0.004978,-1084.4912586453158
0.00498,-1059.9382229799396
0.004982,-1035.5812262613467
0.004984,-1011.4109194382564
0.004986,-987.4177273452513
0.004988,-963.5918709610921
0.00499,-939.9233896366258
0.004992,-916.4021632551837
0.004994,-893.0179342913766
0.004996,-869.7603297374853
0.004998,-846.6188828701822
0.005,-823.5830548339416
0.005002,-800.6422560211515
